(kicad_pcb (version 4) (host pcbnew 4.0.5-e0-6337~52~ubuntu16.10.1)

  (general
    (links 84)
    (no_connects 0)
    (area 98.984999 47.549999 214.705001 153.094)
    (thickness 1.6)
    (drawings 4)
    (tracks 266)
    (zones 0)
    (modules 41)
    (nets 28)
  )

  (page A4)
  (layers
    (0 F.Cu signal)
    (31 B.Cu signal)
    (32 B.Adhes user)
    (33 F.Adhes user)
    (34 B.Paste user)
    (35 F.Paste user)
    (36 B.SilkS user)
    (37 F.SilkS user)
    (38 B.Mask user)
    (39 F.Mask user)
    (40 Dwgs.User user)
    (41 Cmts.User user)
    (42 Eco1.User user)
    (43 Eco2.User user)
    (44 Edge.Cuts user)
    (45 Margin user)
    (46 B.CrtYd user)
    (47 F.CrtYd user)
    (48 B.Fab user)
    (49 F.Fab user)
  )

  (setup
    (last_trace_width 1.2)
    (trace_clearance 0.2)
    (zone_clearance 0.508)
    (zone_45_only no)
    (trace_min 0.2)
    (segment_width 0.2)
    (edge_width 0.15)
    (via_size 0.6)
    (via_drill 0.4)
    (via_min_size 0.4)
    (via_min_drill 0.3)
    (uvia_size 0.3)
    (uvia_drill 0.1)
    (uvias_allowed no)
    (uvia_min_size 0.2)
    (uvia_min_drill 0.1)
    (pcb_text_width 0.3)
    (pcb_text_size 1.5 1.5)
    (mod_edge_width 0.15)
    (mod_text_size 1 1)
    (mod_text_width 0.15)
    (pad_size 4 4)
    (pad_drill 1.00076)
    (pad_to_mask_clearance 0.2)
    (aux_axis_origin 0 0)
    (visible_elements FFFEFF3F)
    (pcbplotparams
      (layerselection 0x00000_00000001)
      (usegerberextensions false)
      (excludeedgelayer false)
      (linewidth 0.100000)
      (plotframeref false)
      (viasonmask false)
      (mode 1)
      (useauxorigin false)
      (hpglpennumber 1)
      (hpglpenspeed 20)
      (hpglpendiameter 15)
      (hpglpenoverlay 2)
      (psnegative false)
      (psa4output false)
      (plotreference false)
      (plotvalue true)
      (plotinvisibletext false)
      (padsonsilk false)
      (subtractmaskfromsilk false)
      (outputformat 2)
      (mirror true)
      (drillshape 0)
      (scaleselection 1)
      (outputdirectory ps/))
  )

  (net 0 "")
  (net 1 GND)
  (net 2 "Net-(C2-Pad1)")
  (net 3 "Net-(C3-Pad1)")
  (net 4 +1V8)
  (net 5 "Net-(J1-Pad1)")
  (net 6 "Net-(J2-Pad1)")
  (net 7 "Net-(J3-Pad1)")
  (net 8 "Net-(J4-Pad1)")
  (net 9 "Net-(J5-Pad1)")
  (net 10 +5V)
  (net 11 /TXD)
  (net 12 /RXD)
  (net 13 /RST)
  (net 14 "Net-(Q2-Pad3)")
  (net 15 "Net-(Q3-Pad3)")
  (net 16 "Net-(Q4-Pad1)")
  (net 17 "Net-(Q5-Pad1)")
  (net 18 "Net-(Q6-Pad1)")
  (net 19 "Net-(Q7-Pad1)")
  (net 20 "Net-(Q8-Pad1)")
  (net 21 "Net-(R3-Pad1)")
  (net 22 "Net-(R7-Pad2)")
  (net 23 "Net-(R8-Pad2)")
  (net 24 /SCK)
  (net 25 /MISO)
  (net 26 /MOSI)
  (net 27 /AVRRST)

  (net_class Default "This is the default net class."
    (clearance 0.2)
    (trace_width 1.2)
    (via_dia 0.6)
    (via_drill 0.4)
    (uvia_dia 0.3)
    (uvia_drill 0.1)
    (add_net +1V8)
    (add_net +5V)
    (add_net /AVRRST)
    (add_net /MISO)
    (add_net /MOSI)
    (add_net /RST)
    (add_net /RXD)
    (add_net /SCK)
    (add_net /TXD)
    (add_net GND)
    (add_net "Net-(C2-Pad1)")
    (add_net "Net-(C3-Pad1)")
    (add_net "Net-(J1-Pad1)")
    (add_net "Net-(J2-Pad1)")
    (add_net "Net-(J3-Pad1)")
    (add_net "Net-(J4-Pad1)")
    (add_net "Net-(J5-Pad1)")
    (add_net "Net-(Q2-Pad3)")
    (add_net "Net-(Q3-Pad3)")
    (add_net "Net-(Q4-Pad1)")
    (add_net "Net-(Q5-Pad1)")
    (add_net "Net-(Q6-Pad1)")
    (add_net "Net-(Q7-Pad1)")
    (add_net "Net-(Q8-Pad1)")
    (add_net "Net-(R3-Pad1)")
    (add_net "Net-(R7-Pad2)")
    (add_net "Net-(R8-Pad2)")
  )

  (module Resistors_SMD:R_1206_HandSoldering (layer F.Cu) (tedit 599FD9BB) (tstamp 599F1297)
    (at 108.458 126.492)
    (descr "Resistor SMD 1206, hand soldering")
    (tags "resistor 1206")
    (path /599F1926)
    (attr smd)
    (fp_text reference R4 (at 0 0) (layer F.SilkS)
      (effects (font (size 1 1) (thickness 0.15)))
    )
    (fp_text value 10k (at 0 1.9) (layer F.Fab)
      (effects (font (size 1 1) (thickness 0.15)))
    )
    (fp_text user %R (at 0 0) (layer F.Fab)
      (effects (font (size 1 1) (thickness 0.15)))
    )
    (fp_line (start -1.6 0.8) (end -1.6 -0.8) (layer F.Fab) (width 0.1))
    (fp_line (start 1.6 0.8) (end -1.6 0.8) (layer F.Fab) (width 0.1))
    (fp_line (start 1.6 -0.8) (end 1.6 0.8) (layer F.Fab) (width 0.1))
    (fp_line (start -1.6 -0.8) (end 1.6 -0.8) (layer F.Fab) (width 0.1))
    (fp_line (start 1 1.07) (end -1 1.07) (layer F.SilkS) (width 0.12))
    (fp_line (start -1 -1.07) (end 1 -1.07) (layer F.SilkS) (width 0.12))
    (fp_line (start -3.25 -1.11) (end 3.25 -1.11) (layer F.CrtYd) (width 0.05))
    (fp_line (start -3.25 -1.11) (end -3.25 1.1) (layer F.CrtYd) (width 0.05))
    (fp_line (start 3.25 1.1) (end 3.25 -1.11) (layer F.CrtYd) (width 0.05))
    (fp_line (start 3.25 1.1) (end -3.25 1.1) (layer F.CrtYd) (width 0.05))
    (pad 1 smd rect (at -2 0) (size 2 1.7) (layers F.Cu F.Paste F.Mask)
      (net 10 +5V))
    (pad 2 smd rect (at 2 0) (size 2 1.7) (layers F.Cu F.Paste F.Mask)
      (net 14 "Net-(Q2-Pad3)"))
    (model Resistors_SMD.3dshapes/R_1206.wrl
      (at (xyz 0 0 0))
      (scale (xyz 1 1 1))
      (rotate (xyz 0 0 0))
    )
  )

  (module TO_SOT_Packages_SMD:SOT-23 (layer F.Cu) (tedit 599FF8E4) (tstamp 599F1249)
    (at 108.458 115.062)
    (descr "SOT-23, Standard")
    (tags SOT-23)
    (path /599F30CF)
    (attr smd)
    (fp_text reference Q1 (at -0.0254 -2.7686 90) (layer F.SilkS)
      (effects (font (size 1 1) (thickness 0.15)))
    )
    (fp_text value BSS138 (at 0 2.5) (layer F.Fab)
      (effects (font (size 1 1) (thickness 0.15)))
    )
    (fp_line (start -0.7 -0.95) (end -0.7 1.5) (layer F.Fab) (width 0.1))
    (fp_line (start -0.15 -1.52) (end 0.7 -1.52) (layer F.Fab) (width 0.1))
    (fp_line (start -0.7 -0.95) (end -0.15 -1.52) (layer F.Fab) (width 0.1))
    (fp_line (start 0.7 -1.52) (end 0.7 1.52) (layer F.Fab) (width 0.1))
    (fp_line (start -0.7 1.52) (end 0.7 1.52) (layer F.Fab) (width 0.1))
    (fp_line (start 0.76 1.58) (end 0.76 0.65) (layer F.SilkS) (width 0.12))
    (fp_line (start 0.76 -1.58) (end 0.76 -0.65) (layer F.SilkS) (width 0.12))
    (fp_line (start -1.7 -1.75) (end 1.7 -1.75) (layer F.CrtYd) (width 0.05))
    (fp_line (start 1.7 -1.75) (end 1.7 1.75) (layer F.CrtYd) (width 0.05))
    (fp_line (start 1.7 1.75) (end -1.7 1.75) (layer F.CrtYd) (width 0.05))
    (fp_line (start -1.7 1.75) (end -1.7 -1.75) (layer F.CrtYd) (width 0.05))
    (fp_line (start 0.76 -1.58) (end -1.4 -1.58) (layer F.SilkS) (width 0.12))
    (fp_line (start 0.76 1.58) (end -0.7 1.58) (layer F.SilkS) (width 0.12))
    (pad 1 smd rect (at -1 -0.95) (size 0.9 0.8) (layers F.Cu F.Paste F.Mask)
      (net 4 +1V8))
    (pad 2 smd rect (at -1 0.95) (size 0.9 0.8) (layers F.Cu F.Paste F.Mask)
      (net 13 /RST))
    (pad 3 smd rect (at 1 0) (size 0.9 0.8) (layers F.Cu F.Paste F.Mask)
      (net 27 /AVRRST))
    (model TO_SOT_Packages_SMD.3dshapes/SOT-23.wrl
      (at (xyz 0 0 0))
      (scale (xyz 1 1 1))
      (rotate (xyz 0 0 90))
    )
  )

  (module Capacitors_SMD:C_1206_HandSoldering (layer F.Cu) (tedit 599FD9B7) (tstamp 599F1209)
    (at 119.634 115.57 270)
    (descr "Capacitor SMD 1206, hand soldering")
    (tags "capacitor 1206")
    (path /599EE5D5)
    (attr smd)
    (fp_text reference C1 (at 0 0 270) (layer F.SilkS)
      (effects (font (size 1 1) (thickness 0.15)))
    )
    (fp_text value 100nF (at 0 2 270) (layer F.Fab)
      (effects (font (size 1 1) (thickness 0.15)))
    )
    (fp_text user %R (at 0 0 270) (layer F.Fab)
      (effects (font (size 1 1) (thickness 0.15)))
    )
    (fp_line (start -1.6 0.8) (end -1.6 -0.8) (layer F.Fab) (width 0.1))
    (fp_line (start 1.6 0.8) (end -1.6 0.8) (layer F.Fab) (width 0.1))
    (fp_line (start 1.6 -0.8) (end 1.6 0.8) (layer F.Fab) (width 0.1))
    (fp_line (start -1.6 -0.8) (end 1.6 -0.8) (layer F.Fab) (width 0.1))
    (fp_line (start 1 -1.02) (end -1 -1.02) (layer F.SilkS) (width 0.12))
    (fp_line (start -1 1.02) (end 1 1.02) (layer F.SilkS) (width 0.12))
    (fp_line (start -3.25 -1.05) (end 3.25 -1.05) (layer F.CrtYd) (width 0.05))
    (fp_line (start -3.25 -1.05) (end -3.25 1.05) (layer F.CrtYd) (width 0.05))
    (fp_line (start 3.25 1.05) (end 3.25 -1.05) (layer F.CrtYd) (width 0.05))
    (fp_line (start 3.25 1.05) (end -3.25 1.05) (layer F.CrtYd) (width 0.05))
    (pad 1 smd rect (at -2 0 270) (size 2 1.6) (layers F.Cu F.Paste F.Mask)
      (net 10 +5V))
    (pad 2 smd rect (at 2 0 270) (size 2 1.6) (layers F.Cu F.Paste F.Mask)
      (net 1 GND))
    (model Capacitors_SMD.3dshapes/C_1206.wrl
      (at (xyz 0 0 0))
      (scale (xyz 1 1 1))
      (rotate (xyz 0 0 0))
    )
  )

  (module Capacitors_SMD:C_0805_HandSoldering (layer F.Cu) (tedit 599FD78D) (tstamp 599F120F)
    (at 119.888 138.43 270)
    (descr "Capacitor SMD 0805, hand soldering")
    (tags "capacitor 0805")
    (path /599EE424)
    (attr smd)
    (fp_text reference C2 (at 0 0 270) (layer F.SilkS)
      (effects (font (size 1 1) (thickness 0.15)))
    )
    (fp_text value 22pF (at 0 1.75 270) (layer F.Fab)
      (effects (font (size 1 1) (thickness 0.15)))
    )
    (fp_text user %R (at 0 0 270) (layer F.Fab)
      (effects (font (size 1 1) (thickness 0.15)))
    )
    (fp_line (start -1 0.62) (end -1 -0.62) (layer F.Fab) (width 0.1))
    (fp_line (start 1 0.62) (end -1 0.62) (layer F.Fab) (width 0.1))
    (fp_line (start 1 -0.62) (end 1 0.62) (layer F.Fab) (width 0.1))
    (fp_line (start -1 -0.62) (end 1 -0.62) (layer F.Fab) (width 0.1))
    (fp_line (start 0.5 -0.85) (end -0.5 -0.85) (layer F.SilkS) (width 0.12))
    (fp_line (start -0.5 0.85) (end 0.5 0.85) (layer F.SilkS) (width 0.12))
    (fp_line (start -2.25 -0.88) (end 2.25 -0.88) (layer F.CrtYd) (width 0.05))
    (fp_line (start -2.25 -0.88) (end -2.25 0.87) (layer F.CrtYd) (width 0.05))
    (fp_line (start 2.25 0.87) (end 2.25 -0.88) (layer F.CrtYd) (width 0.05))
    (fp_line (start 2.25 0.87) (end -2.25 0.87) (layer F.CrtYd) (width 0.05))
    (pad 1 smd rect (at -1.25 0 270) (size 1.5 1.25) (layers F.Cu F.Paste F.Mask)
      (net 2 "Net-(C2-Pad1)"))
    (pad 2 smd rect (at 1.25 0 270) (size 1.5 1.25) (layers F.Cu F.Paste F.Mask)
      (net 1 GND))
    (model Capacitors_SMD.3dshapes/C_0805.wrl
      (at (xyz 0 0 0))
      (scale (xyz 1 1 1))
      (rotate (xyz 0 0 0))
    )
  )

  (module Capacitors_SMD:C_0805_HandSoldering (layer F.Cu) (tedit 599FD790) (tstamp 599F1215)
    (at 124.714 138.43 270)
    (descr "Capacitor SMD 0805, hand soldering")
    (tags "capacitor 0805")
    (path /599EE30E)
    (attr smd)
    (fp_text reference C3 (at 0 0 270) (layer F.SilkS)
      (effects (font (size 1 1) (thickness 0.15)))
    )
    (fp_text value 22pF (at 0 1.75 270) (layer F.Fab)
      (effects (font (size 1 1) (thickness 0.15)))
    )
    (fp_text user %R (at 0 0 270) (layer F.Fab)
      (effects (font (size 1 1) (thickness 0.15)))
    )
    (fp_line (start -1 0.62) (end -1 -0.62) (layer F.Fab) (width 0.1))
    (fp_line (start 1 0.62) (end -1 0.62) (layer F.Fab) (width 0.1))
    (fp_line (start 1 -0.62) (end 1 0.62) (layer F.Fab) (width 0.1))
    (fp_line (start -1 -0.62) (end 1 -0.62) (layer F.Fab) (width 0.1))
    (fp_line (start 0.5 -0.85) (end -0.5 -0.85) (layer F.SilkS) (width 0.12))
    (fp_line (start -0.5 0.85) (end 0.5 0.85) (layer F.SilkS) (width 0.12))
    (fp_line (start -2.25 -0.88) (end 2.25 -0.88) (layer F.CrtYd) (width 0.05))
    (fp_line (start -2.25 -0.88) (end -2.25 0.87) (layer F.CrtYd) (width 0.05))
    (fp_line (start 2.25 0.87) (end 2.25 -0.88) (layer F.CrtYd) (width 0.05))
    (fp_line (start 2.25 0.87) (end -2.25 0.87) (layer F.CrtYd) (width 0.05))
    (pad 1 smd rect (at -1.25 0 270) (size 1.5 1.25) (layers F.Cu F.Paste F.Mask)
      (net 3 "Net-(C3-Pad1)"))
    (pad 2 smd rect (at 1.25 0 270) (size 1.5 1.25) (layers F.Cu F.Paste F.Mask)
      (net 1 GND))
    (model Capacitors_SMD.3dshapes/C_0805.wrl
      (at (xyz 0 0 0))
      (scale (xyz 1 1 1))
      (rotate (xyz 0 0 0))
    )
  )

  (module Capacitors_SMD:C_1206_HandSoldering (layer F.Cu) (tedit 599FEE80) (tstamp 599F121B)
    (at 114.3 134.62 270)
    (descr "Capacitor SMD 1206, hand soldering")
    (tags "capacitor 1206")
    (path /599F6630)
    (attr smd)
    (fp_text reference C4 (at 0 0 270) (layer F.SilkS)
      (effects (font (size 1 1) (thickness 0.15)))
    )
    (fp_text value 100nF (at 0 2 270) (layer F.Fab)
      (effects (font (size 1 1) (thickness 0.15)))
    )
    (fp_text user %R (at 0 0 270) (layer F.Fab)
      (effects (font (size 1 1) (thickness 0.15)))
    )
    (fp_line (start -1.6 0.8) (end -1.6 -0.8) (layer F.Fab) (width 0.1))
    (fp_line (start 1.6 0.8) (end -1.6 0.8) (layer F.Fab) (width 0.1))
    (fp_line (start 1.6 -0.8) (end 1.6 0.8) (layer F.Fab) (width 0.1))
    (fp_line (start -1.6 -0.8) (end 1.6 -0.8) (layer F.Fab) (width 0.1))
    (fp_line (start 1 -1.02) (end -1 -1.02) (layer F.SilkS) (width 0.12))
    (fp_line (start -1 1.02) (end 1 1.02) (layer F.SilkS) (width 0.12))
    (fp_line (start -3.25 -1.05) (end 3.25 -1.05) (layer F.CrtYd) (width 0.05))
    (fp_line (start -3.25 -1.05) (end -3.25 1.05) (layer F.CrtYd) (width 0.05))
    (fp_line (start 3.25 1.05) (end 3.25 -1.05) (layer F.CrtYd) (width 0.05))
    (fp_line (start 3.25 1.05) (end -3.25 1.05) (layer F.CrtYd) (width 0.05))
    (pad 1 smd rect (at -2 0 270) (size 2 1.6) (layers F.Cu F.Paste F.Mask)
      (net 4 +1V8))
    (pad 2 smd rect (at 2 0 270) (size 2 1.6) (layers F.Cu F.Paste F.Mask)
      (net 1 GND))
    (model Capacitors_SMD.3dshapes/C_1206.wrl
      (at (xyz 0 0 0))
      (scale (xyz 1 1 1))
      (rotate (xyz 0 0 0))
    )
  )

  (module Wire_Pads:SolderWirePad_single_1mmDrill (layer F.Cu) (tedit 599FF152) (tstamp 599F1220)
    (at 146.304 139.7)
    (path /599F0308)
    (fp_text reference J1 (at 0 -3.81) (layer F.SilkS)
      (effects (font (size 1 1) (thickness 0.15)))
    )
    (fp_text value R (at -1.905 3.175) (layer F.Fab)
      (effects (font (size 1 1) (thickness 0.15)))
    )
    (pad 1 thru_hole circle (at 0 0) (size 4 4) (drill 1.00076) (layers *.Cu *.Mask)
      (net 5 "Net-(J1-Pad1)"))
  )

  (module Wire_Pads:SolderWirePad_single_1mmDrill (layer F.Cu) (tedit 599FF14C) (tstamp 599F1225)
    (at 146.304 132.334)
    (path /599F05B3)
    (fp_text reference J2 (at 0 -3.81) (layer F.SilkS)
      (effects (font (size 1 1) (thickness 0.15)))
    )
    (fp_text value G (at -1.905 3.175) (layer F.Fab)
      (effects (font (size 1 1) (thickness 0.15)))
    )
    (pad 1 thru_hole circle (at 0 0) (size 4 4) (drill 1.00076) (layers *.Cu *.Mask)
      (net 6 "Net-(J2-Pad1)"))
  )

  (module Wire_Pads:SolderWirePad_single_1mmDrill (layer F.Cu) (tedit 599FF146) (tstamp 599F122A)
    (at 146.304 124.968)
    (path /599F06ED)
    (fp_text reference J3 (at 0 -3.81) (layer F.SilkS)
      (effects (font (size 1 1) (thickness 0.15)))
    )
    (fp_text value B (at -1.905 3.175) (layer F.Fab)
      (effects (font (size 1 1) (thickness 0.15)))
    )
    (pad 1 thru_hole circle (at 0 0) (size 4 4) (drill 1.00076) (layers *.Cu *.Mask)
      (net 7 "Net-(J3-Pad1)"))
  )

  (module Wire_Pads:SolderWirePad_single_1mmDrill (layer F.Cu) (tedit 599FF13E) (tstamp 599F122F)
    (at 146.304 117.602)
    (path /599F077F)
    (fp_text reference J4 (at 0 -3.81) (layer F.SilkS)
      (effects (font (size 1 1) (thickness 0.15)))
    )
    (fp_text value W (at -1.905 3.175) (layer F.Fab)
      (effects (font (size 1 1) (thickness 0.15)))
    )
    (pad 1 thru_hole circle (at 0 0) (size 4 4) (drill 1.00076) (layers *.Cu *.Mask)
      (net 8 "Net-(J4-Pad1)"))
  )

  (module Wire_Pads:SolderWirePad_single_1mmDrill (layer F.Cu) (tedit 599FF132) (tstamp 599F1234)
    (at 146.304 110.236)
    (path /599F0833)
    (fp_text reference J5 (at 0 -3.81) (layer F.SilkS)
      (effects (font (size 1 1) (thickness 0.15)))
    )
    (fp_text value R (at -1.905 3.175) (layer F.Fab)
      (effects (font (size 1 1) (thickness 0.15)))
    )
    (pad 1 thru_hole circle (at 0 0) (size 4 4) (drill 1.00076) (layers *.Cu *.Mask)
      (net 9 "Net-(J5-Pad1)"))
  )

  (module Wire_Pads:SolderWirePad_single_1mmDrill (layer F.Cu) (tedit 599FF157) (tstamp 599F1239)
    (at 146.304 146.304)
    (path /599F3E63)
    (fp_text reference J6 (at 0 -3.81) (layer F.SilkS)
      (effects (font (size 1 1) (thickness 0.15)))
    )
    (fp_text value GND (at -1.905 3.175) (layer F.Fab)
      (effects (font (size 1 1) (thickness 0.15)))
    )
    (pad 1 thru_hole circle (at 0 0) (size 4 4) (drill 1.00076) (layers *.Cu *.Mask)
      (net 1 GND))
  )

  (module Pin_Headers:Pin_Header_Straight_1x05_Pitch2.54mm (layer B.Cu) (tedit 5862ED52) (tstamp 599F1242)
    (at 102.362 130.81)
    (descr "Through hole straight pin header, 1x05, 2.54mm pitch, single row")
    (tags "Through hole pin header THT 1x05 2.54mm single row")
    (path /599F4227)
    (fp_text reference J7 (at 0 2.39) (layer B.SilkS)
      (effects (font (size 1 1) (thickness 0.15)) (justify mirror))
    )
    (fp_text value UART (at 0 -12.55) (layer B.Fab)
      (effects (font (size 1 1) (thickness 0.15)) (justify mirror))
    )
    (fp_line (start -1.27 1.27) (end -1.27 -11.43) (layer B.Fab) (width 0.1))
    (fp_line (start -1.27 -11.43) (end 1.27 -11.43) (layer B.Fab) (width 0.1))
    (fp_line (start 1.27 -11.43) (end 1.27 1.27) (layer B.Fab) (width 0.1))
    (fp_line (start 1.27 1.27) (end -1.27 1.27) (layer B.Fab) (width 0.1))
    (fp_line (start -1.39 -1.27) (end -1.39 -11.55) (layer B.SilkS) (width 0.12))
    (fp_line (start -1.39 -11.55) (end 1.39 -11.55) (layer B.SilkS) (width 0.12))
    (fp_line (start 1.39 -11.55) (end 1.39 -1.27) (layer B.SilkS) (width 0.12))
    (fp_line (start 1.39 -1.27) (end -1.39 -1.27) (layer B.SilkS) (width 0.12))
    (fp_line (start -1.39 0) (end -1.39 1.39) (layer B.SilkS) (width 0.12))
    (fp_line (start -1.39 1.39) (end 0 1.39) (layer B.SilkS) (width 0.12))
    (fp_line (start -1.6 1.6) (end -1.6 -11.7) (layer B.CrtYd) (width 0.05))
    (fp_line (start -1.6 -11.7) (end 1.6 -11.7) (layer B.CrtYd) (width 0.05))
    (fp_line (start 1.6 -11.7) (end 1.6 1.6) (layer B.CrtYd) (width 0.05))
    (fp_line (start 1.6 1.6) (end -1.6 1.6) (layer B.CrtYd) (width 0.05))
    (pad 1 thru_hole rect (at 0 0) (size 1.7 1.7) (drill 1) (layers *.Cu *.Mask)
      (net 11 /TXD))
    (pad 2 thru_hole oval (at 0 -2.54) (size 1.7 1.7) (drill 1) (layers *.Cu *.Mask)
      (net 4 +1V8))
    (pad 3 thru_hole oval (at 0 -5.08) (size 1.7 1.7) (drill 1) (layers *.Cu *.Mask)
      (net 10 +5V))
    (pad 4 thru_hole oval (at 0 -7.62) (size 1.7 1.7) (drill 1) (layers *.Cu *.Mask)
      (net 12 /RXD))
    (pad 5 thru_hole oval (at 0 -10.16) (size 1.7 1.7) (drill 1) (layers *.Cu *.Mask)
      (net 13 /RST))
    (model Pin_Headers.3dshapes/Pin_Header_Straight_1x05_Pitch2.54mm.wrl
      (at (xyz 0 -0.2 0))
      (scale (xyz 1 1 1))
      (rotate (xyz 0 0 90))
    )
  )

  (module TO_SOT_Packages_SMD:SOT-23 (layer F.Cu) (tedit 5883B105) (tstamp 599F1250)
    (at 108.458 123.19)
    (descr "SOT-23, Standard")
    (tags SOT-23)
    (path /599F14A9)
    (attr smd)
    (fp_text reference Q2 (at 0 -2.5) (layer F.SilkS)
      (effects (font (size 1 1) (thickness 0.15)))
    )
    (fp_text value BSS138 (at 0 2.5) (layer F.Fab)
      (effects (font (size 1 1) (thickness 0.15)))
    )
    (fp_line (start -0.7 -0.95) (end -0.7 1.5) (layer F.Fab) (width 0.1))
    (fp_line (start -0.15 -1.52) (end 0.7 -1.52) (layer F.Fab) (width 0.1))
    (fp_line (start -0.7 -0.95) (end -0.15 -1.52) (layer F.Fab) (width 0.1))
    (fp_line (start 0.7 -1.52) (end 0.7 1.52) (layer F.Fab) (width 0.1))
    (fp_line (start -0.7 1.52) (end 0.7 1.52) (layer F.Fab) (width 0.1))
    (fp_line (start 0.76 1.58) (end 0.76 0.65) (layer F.SilkS) (width 0.12))
    (fp_line (start 0.76 -1.58) (end 0.76 -0.65) (layer F.SilkS) (width 0.12))
    (fp_line (start -1.7 -1.75) (end 1.7 -1.75) (layer F.CrtYd) (width 0.05))
    (fp_line (start 1.7 -1.75) (end 1.7 1.75) (layer F.CrtYd) (width 0.05))
    (fp_line (start 1.7 1.75) (end -1.7 1.75) (layer F.CrtYd) (width 0.05))
    (fp_line (start -1.7 1.75) (end -1.7 -1.75) (layer F.CrtYd) (width 0.05))
    (fp_line (start 0.76 -1.58) (end -1.4 -1.58) (layer F.SilkS) (width 0.12))
    (fp_line (start 0.76 1.58) (end -0.7 1.58) (layer F.SilkS) (width 0.12))
    (pad 1 smd rect (at -1 -0.95) (size 0.9 0.8) (layers F.Cu F.Paste F.Mask)
      (net 4 +1V8))
    (pad 2 smd rect (at -1 0.95) (size 0.9 0.8) (layers F.Cu F.Paste F.Mask)
      (net 12 /RXD))
    (pad 3 smd rect (at 1 0) (size 0.9 0.8) (layers F.Cu F.Paste F.Mask)
      (net 14 "Net-(Q2-Pad3)"))
    (model TO_SOT_Packages_SMD.3dshapes/SOT-23.wrl
      (at (xyz 0 0 0))
      (scale (xyz 1 1 1))
      (rotate (xyz 0 0 90))
    )
  )

  (module TO_SOT_Packages_SMD:SOT-23 (layer F.Cu) (tedit 599FF8EE) (tstamp 599F1257)
    (at 108.458 132.08)
    (descr "SOT-23, Standard")
    (tags SOT-23)
    (path /599F217F)
    (attr smd)
    (fp_text reference Q3 (at 2.6924 1.3716) (layer F.SilkS)
      (effects (font (size 1 1) (thickness 0.15)))
    )
    (fp_text value BSS138 (at 0 2.5) (layer F.Fab)
      (effects (font (size 1 1) (thickness 0.15)))
    )
    (fp_line (start -0.7 -0.95) (end -0.7 1.5) (layer F.Fab) (width 0.1))
    (fp_line (start -0.15 -1.52) (end 0.7 -1.52) (layer F.Fab) (width 0.1))
    (fp_line (start -0.7 -0.95) (end -0.15 -1.52) (layer F.Fab) (width 0.1))
    (fp_line (start 0.7 -1.52) (end 0.7 1.52) (layer F.Fab) (width 0.1))
    (fp_line (start -0.7 1.52) (end 0.7 1.52) (layer F.Fab) (width 0.1))
    (fp_line (start 0.76 1.58) (end 0.76 0.65) (layer F.SilkS) (width 0.12))
    (fp_line (start 0.76 -1.58) (end 0.76 -0.65) (layer F.SilkS) (width 0.12))
    (fp_line (start -1.7 -1.75) (end 1.7 -1.75) (layer F.CrtYd) (width 0.05))
    (fp_line (start 1.7 -1.75) (end 1.7 1.75) (layer F.CrtYd) (width 0.05))
    (fp_line (start 1.7 1.75) (end -1.7 1.75) (layer F.CrtYd) (width 0.05))
    (fp_line (start -1.7 1.75) (end -1.7 -1.75) (layer F.CrtYd) (width 0.05))
    (fp_line (start 0.76 -1.58) (end -1.4 -1.58) (layer F.SilkS) (width 0.12))
    (fp_line (start 0.76 1.58) (end -0.7 1.58) (layer F.SilkS) (width 0.12))
    (pad 1 smd rect (at -1 -0.95) (size 0.9 0.8) (layers F.Cu F.Paste F.Mask)
      (net 4 +1V8))
    (pad 2 smd rect (at -1 0.95) (size 0.9 0.8) (layers F.Cu F.Paste F.Mask)
      (net 11 /TXD))
    (pad 3 smd rect (at 1 0) (size 0.9 0.8) (layers F.Cu F.Paste F.Mask)
      (net 15 "Net-(Q3-Pad3)"))
    (model TO_SOT_Packages_SMD.3dshapes/SOT-23.wrl
      (at (xyz 0 0 0))
      (scale (xyz 1 1 1))
      (rotate (xyz 0 0 90))
    )
  )

  (module TO_SOT_Packages_SMD:SOT-223-3Lead_TabPin2 (layer F.Cu) (tedit 5891A32E) (tstamp 599F125F)
    (at 138.176 139.7)
    (descr "module CMS SOT223 4 pins")
    (tags "CMS SOT")
    (path /599EEFD9)
    (attr smd)
    (fp_text reference Q4 (at 0 -4.5) (layer F.SilkS)
      (effects (font (size 1 1) (thickness 0.15)))
    )
    (fp_text value FL024Z (at 0 4.5) (layer F.Fab)
      (effects (font (size 1 1) (thickness 0.15)))
    )
    (fp_line (start 1.91 3.41) (end 1.91 2.15) (layer F.SilkS) (width 0.12))
    (fp_line (start 1.91 -3.41) (end 1.91 -2.15) (layer F.SilkS) (width 0.12))
    (fp_line (start 4.4 -3.6) (end -4.4 -3.6) (layer F.CrtYd) (width 0.05))
    (fp_line (start 4.4 3.6) (end 4.4 -3.6) (layer F.CrtYd) (width 0.05))
    (fp_line (start -4.4 3.6) (end 4.4 3.6) (layer F.CrtYd) (width 0.05))
    (fp_line (start -4.4 -3.6) (end -4.4 3.6) (layer F.CrtYd) (width 0.05))
    (fp_line (start -1.85 -2.35) (end -0.85 -3.35) (layer F.Fab) (width 0.1))
    (fp_line (start -1.85 -2.35) (end -1.85 3.35) (layer F.Fab) (width 0.1))
    (fp_line (start -1.85 3.41) (end 1.91 3.41) (layer F.SilkS) (width 0.12))
    (fp_line (start -0.85 -3.35) (end 1.85 -3.35) (layer F.Fab) (width 0.1))
    (fp_line (start -4.1 -3.41) (end 1.91 -3.41) (layer F.SilkS) (width 0.12))
    (fp_line (start -1.85 3.35) (end 1.85 3.35) (layer F.Fab) (width 0.1))
    (fp_line (start 1.85 -3.35) (end 1.85 3.35) (layer F.Fab) (width 0.1))
    (pad 2 smd rect (at 3.15 0) (size 2 3.8) (layers F.Cu F.Paste F.Mask)
      (net 5 "Net-(J1-Pad1)"))
    (pad 2 smd rect (at -3.15 0) (size 2 1.5) (layers F.Cu F.Paste F.Mask)
      (net 5 "Net-(J1-Pad1)"))
    (pad 3 smd rect (at -3.15 2.3) (size 2 1.5) (layers F.Cu F.Paste F.Mask)
      (net 1 GND))
    (pad 1 smd rect (at -3.15 -2.3) (size 2 1.5) (layers F.Cu F.Paste F.Mask)
      (net 16 "Net-(Q4-Pad1)"))
    (model TO_SOT_Packages_SMD.3dshapes/SOT-223.wrl
      (at (xyz 0 0 0))
      (scale (xyz 0.4 0.4 0.4))
      (rotate (xyz 0 0 90))
    )
  )

  (module TO_SOT_Packages_SMD:SOT-223-3Lead_TabPin2 (layer F.Cu) (tedit 5891A32E) (tstamp 599F1267)
    (at 138.176 132.334)
    (descr "module CMS SOT223 4 pins")
    (tags "CMS SOT")
    (path /599EED83)
    (attr smd)
    (fp_text reference Q5 (at 0 -4.5) (layer F.SilkS)
      (effects (font (size 1 1) (thickness 0.15)))
    )
    (fp_text value FL024Z (at 0 4.5) (layer F.Fab)
      (effects (font (size 1 1) (thickness 0.15)))
    )
    (fp_line (start 1.91 3.41) (end 1.91 2.15) (layer F.SilkS) (width 0.12))
    (fp_line (start 1.91 -3.41) (end 1.91 -2.15) (layer F.SilkS) (width 0.12))
    (fp_line (start 4.4 -3.6) (end -4.4 -3.6) (layer F.CrtYd) (width 0.05))
    (fp_line (start 4.4 3.6) (end 4.4 -3.6) (layer F.CrtYd) (width 0.05))
    (fp_line (start -4.4 3.6) (end 4.4 3.6) (layer F.CrtYd) (width 0.05))
    (fp_line (start -4.4 -3.6) (end -4.4 3.6) (layer F.CrtYd) (width 0.05))
    (fp_line (start -1.85 -2.35) (end -0.85 -3.35) (layer F.Fab) (width 0.1))
    (fp_line (start -1.85 -2.35) (end -1.85 3.35) (layer F.Fab) (width 0.1))
    (fp_line (start -1.85 3.41) (end 1.91 3.41) (layer F.SilkS) (width 0.12))
    (fp_line (start -0.85 -3.35) (end 1.85 -3.35) (layer F.Fab) (width 0.1))
    (fp_line (start -4.1 -3.41) (end 1.91 -3.41) (layer F.SilkS) (width 0.12))
    (fp_line (start -1.85 3.35) (end 1.85 3.35) (layer F.Fab) (width 0.1))
    (fp_line (start 1.85 -3.35) (end 1.85 3.35) (layer F.Fab) (width 0.1))
    (pad 2 smd rect (at 3.15 0) (size 2 3.8) (layers F.Cu F.Paste F.Mask)
      (net 6 "Net-(J2-Pad1)"))
    (pad 2 smd rect (at -3.15 0) (size 2 1.5) (layers F.Cu F.Paste F.Mask)
      (net 6 "Net-(J2-Pad1)"))
    (pad 3 smd rect (at -3.15 2.3) (size 2 1.5) (layers F.Cu F.Paste F.Mask)
      (net 1 GND))
    (pad 1 smd rect (at -3.15 -2.3) (size 2 1.5) (layers F.Cu F.Paste F.Mask)
      (net 17 "Net-(Q5-Pad1)"))
    (model TO_SOT_Packages_SMD.3dshapes/SOT-223.wrl
      (at (xyz 0 0 0))
      (scale (xyz 0.4 0.4 0.4))
      (rotate (xyz 0 0 90))
    )
  )

  (module TO_SOT_Packages_SMD:SOT-223-3Lead_TabPin2 (layer F.Cu) (tedit 5891A32E) (tstamp 599F126F)
    (at 138.176 124.968)
    (descr "module CMS SOT223 4 pins")
    (tags "CMS SOT")
    (path /599EEE3C)
    (attr smd)
    (fp_text reference Q6 (at 0 -4.5) (layer F.SilkS)
      (effects (font (size 1 1) (thickness 0.15)))
    )
    (fp_text value FL024Z (at 0 4.5) (layer F.Fab)
      (effects (font (size 1 1) (thickness 0.15)))
    )
    (fp_line (start 1.91 3.41) (end 1.91 2.15) (layer F.SilkS) (width 0.12))
    (fp_line (start 1.91 -3.41) (end 1.91 -2.15) (layer F.SilkS) (width 0.12))
    (fp_line (start 4.4 -3.6) (end -4.4 -3.6) (layer F.CrtYd) (width 0.05))
    (fp_line (start 4.4 3.6) (end 4.4 -3.6) (layer F.CrtYd) (width 0.05))
    (fp_line (start -4.4 3.6) (end 4.4 3.6) (layer F.CrtYd) (width 0.05))
    (fp_line (start -4.4 -3.6) (end -4.4 3.6) (layer F.CrtYd) (width 0.05))
    (fp_line (start -1.85 -2.35) (end -0.85 -3.35) (layer F.Fab) (width 0.1))
    (fp_line (start -1.85 -2.35) (end -1.85 3.35) (layer F.Fab) (width 0.1))
    (fp_line (start -1.85 3.41) (end 1.91 3.41) (layer F.SilkS) (width 0.12))
    (fp_line (start -0.85 -3.35) (end 1.85 -3.35) (layer F.Fab) (width 0.1))
    (fp_line (start -4.1 -3.41) (end 1.91 -3.41) (layer F.SilkS) (width 0.12))
    (fp_line (start -1.85 3.35) (end 1.85 3.35) (layer F.Fab) (width 0.1))
    (fp_line (start 1.85 -3.35) (end 1.85 3.35) (layer F.Fab) (width 0.1))
    (pad 2 smd rect (at 3.15 0) (size 2 3.8) (layers F.Cu F.Paste F.Mask)
      (net 7 "Net-(J3-Pad1)"))
    (pad 2 smd rect (at -3.15 0) (size 2 1.5) (layers F.Cu F.Paste F.Mask)
      (net 7 "Net-(J3-Pad1)"))
    (pad 3 smd rect (at -3.15 2.3) (size 2 1.5) (layers F.Cu F.Paste F.Mask)
      (net 1 GND))
    (pad 1 smd rect (at -3.15 -2.3) (size 2 1.5) (layers F.Cu F.Paste F.Mask)
      (net 18 "Net-(Q6-Pad1)"))
    (model TO_SOT_Packages_SMD.3dshapes/SOT-223.wrl
      (at (xyz 0 0 0))
      (scale (xyz 0.4 0.4 0.4))
      (rotate (xyz 0 0 90))
    )
  )

  (module TO_SOT_Packages_SMD:SOT-223-3Lead_TabPin2 (layer F.Cu) (tedit 5891A32E) (tstamp 599F1277)
    (at 138.176 117.602)
    (descr "module CMS SOT223 4 pins")
    (tags "CMS SOT")
    (path /599EEEAF)
    (attr smd)
    (fp_text reference Q7 (at 0 -4.5) (layer F.SilkS)
      (effects (font (size 1 1) (thickness 0.15)))
    )
    (fp_text value FL024Z (at 0 4.5) (layer F.Fab)
      (effects (font (size 1 1) (thickness 0.15)))
    )
    (fp_line (start 1.91 3.41) (end 1.91 2.15) (layer F.SilkS) (width 0.12))
    (fp_line (start 1.91 -3.41) (end 1.91 -2.15) (layer F.SilkS) (width 0.12))
    (fp_line (start 4.4 -3.6) (end -4.4 -3.6) (layer F.CrtYd) (width 0.05))
    (fp_line (start 4.4 3.6) (end 4.4 -3.6) (layer F.CrtYd) (width 0.05))
    (fp_line (start -4.4 3.6) (end 4.4 3.6) (layer F.CrtYd) (width 0.05))
    (fp_line (start -4.4 -3.6) (end -4.4 3.6) (layer F.CrtYd) (width 0.05))
    (fp_line (start -1.85 -2.35) (end -0.85 -3.35) (layer F.Fab) (width 0.1))
    (fp_line (start -1.85 -2.35) (end -1.85 3.35) (layer F.Fab) (width 0.1))
    (fp_line (start -1.85 3.41) (end 1.91 3.41) (layer F.SilkS) (width 0.12))
    (fp_line (start -0.85 -3.35) (end 1.85 -3.35) (layer F.Fab) (width 0.1))
    (fp_line (start -4.1 -3.41) (end 1.91 -3.41) (layer F.SilkS) (width 0.12))
    (fp_line (start -1.85 3.35) (end 1.85 3.35) (layer F.Fab) (width 0.1))
    (fp_line (start 1.85 -3.35) (end 1.85 3.35) (layer F.Fab) (width 0.1))
    (pad 2 smd rect (at 3.15 0) (size 2 3.8) (layers F.Cu F.Paste F.Mask)
      (net 8 "Net-(J4-Pad1)"))
    (pad 2 smd rect (at -3.15 0) (size 2 1.5) (layers F.Cu F.Paste F.Mask)
      (net 8 "Net-(J4-Pad1)"))
    (pad 3 smd rect (at -3.15 2.3) (size 2 1.5) (layers F.Cu F.Paste F.Mask)
      (net 1 GND))
    (pad 1 smd rect (at -3.15 -2.3) (size 2 1.5) (layers F.Cu F.Paste F.Mask)
      (net 19 "Net-(Q7-Pad1)"))
    (model TO_SOT_Packages_SMD.3dshapes/SOT-223.wrl
      (at (xyz 0 0 0))
      (scale (xyz 0.4 0.4 0.4))
      (rotate (xyz 0 0 90))
    )
  )

  (module TO_SOT_Packages_SMD:SOT-223-3Lead_TabPin2 (layer F.Cu) (tedit 5891A32E) (tstamp 599F127F)
    (at 138.176 110.236)
    (descr "module CMS SOT223 4 pins")
    (tags "CMS SOT")
    (path /599EEF2C)
    (attr smd)
    (fp_text reference Q8 (at 0 -4.5) (layer F.SilkS)
      (effects (font (size 1 1) (thickness 0.15)))
    )
    (fp_text value FL024Z (at 0 4.5) (layer F.Fab)
      (effects (font (size 1 1) (thickness 0.15)))
    )
    (fp_line (start 1.91 3.41) (end 1.91 2.15) (layer F.SilkS) (width 0.12))
    (fp_line (start 1.91 -3.41) (end 1.91 -2.15) (layer F.SilkS) (width 0.12))
    (fp_line (start 4.4 -3.6) (end -4.4 -3.6) (layer F.CrtYd) (width 0.05))
    (fp_line (start 4.4 3.6) (end 4.4 -3.6) (layer F.CrtYd) (width 0.05))
    (fp_line (start -4.4 3.6) (end 4.4 3.6) (layer F.CrtYd) (width 0.05))
    (fp_line (start -4.4 -3.6) (end -4.4 3.6) (layer F.CrtYd) (width 0.05))
    (fp_line (start -1.85 -2.35) (end -0.85 -3.35) (layer F.Fab) (width 0.1))
    (fp_line (start -1.85 -2.35) (end -1.85 3.35) (layer F.Fab) (width 0.1))
    (fp_line (start -1.85 3.41) (end 1.91 3.41) (layer F.SilkS) (width 0.12))
    (fp_line (start -0.85 -3.35) (end 1.85 -3.35) (layer F.Fab) (width 0.1))
    (fp_line (start -4.1 -3.41) (end 1.91 -3.41) (layer F.SilkS) (width 0.12))
    (fp_line (start -1.85 3.35) (end 1.85 3.35) (layer F.Fab) (width 0.1))
    (fp_line (start 1.85 -3.35) (end 1.85 3.35) (layer F.Fab) (width 0.1))
    (pad 2 smd rect (at 3.15 0) (size 2 3.8) (layers F.Cu F.Paste F.Mask)
      (net 9 "Net-(J5-Pad1)"))
    (pad 2 smd rect (at -3.15 0) (size 2 1.5) (layers F.Cu F.Paste F.Mask)
      (net 9 "Net-(J5-Pad1)"))
    (pad 3 smd rect (at -3.15 2.3) (size 2 1.5) (layers F.Cu F.Paste F.Mask)
      (net 1 GND))
    (pad 1 smd rect (at -3.15 -2.3) (size 2 1.5) (layers F.Cu F.Paste F.Mask)
      (net 20 "Net-(Q8-Pad1)"))
    (model TO_SOT_Packages_SMD.3dshapes/SOT-223.wrl
      (at (xyz 0 0 0))
      (scale (xyz 0.4 0.4 0.4))
      (rotate (xyz 0 0 90))
    )
  )

  (module Resistors_SMD:R_1206_HandSoldering (layer F.Cu) (tedit 599FD9AE) (tstamp 599F1285)
    (at 122.174 115.57 90)
    (descr "Resistor SMD 1206, hand soldering")
    (tags "resistor 1206")
    (path /599EE9C6)
    (attr smd)
    (fp_text reference R1 (at 0 0 90) (layer F.SilkS)
      (effects (font (size 1 1) (thickness 0.15)))
    )
    (fp_text value 10k (at 0 1.9 90) (layer F.Fab)
      (effects (font (size 1 1) (thickness 0.15)))
    )
    (fp_text user %R (at 0 0 90) (layer F.Fab)
      (effects (font (size 1 1) (thickness 0.15)))
    )
    (fp_line (start -1.6 0.8) (end -1.6 -0.8) (layer F.Fab) (width 0.1))
    (fp_line (start 1.6 0.8) (end -1.6 0.8) (layer F.Fab) (width 0.1))
    (fp_line (start 1.6 -0.8) (end 1.6 0.8) (layer F.Fab) (width 0.1))
    (fp_line (start -1.6 -0.8) (end 1.6 -0.8) (layer F.Fab) (width 0.1))
    (fp_line (start 1 1.07) (end -1 1.07) (layer F.SilkS) (width 0.12))
    (fp_line (start -1 -1.07) (end 1 -1.07) (layer F.SilkS) (width 0.12))
    (fp_line (start -3.25 -1.11) (end 3.25 -1.11) (layer F.CrtYd) (width 0.05))
    (fp_line (start -3.25 -1.11) (end -3.25 1.1) (layer F.CrtYd) (width 0.05))
    (fp_line (start 3.25 1.1) (end 3.25 -1.11) (layer F.CrtYd) (width 0.05))
    (fp_line (start 3.25 1.1) (end -3.25 1.1) (layer F.CrtYd) (width 0.05))
    (pad 1 smd rect (at -2 0 90) (size 2 1.7) (layers F.Cu F.Paste F.Mask)
      (net 10 +5V))
    (pad 2 smd rect (at 2 0 90) (size 2 1.7) (layers F.Cu F.Paste F.Mask)
      (net 27 /AVRRST))
    (model Resistors_SMD.3dshapes/R_1206.wrl
      (at (xyz 0 0 0))
      (scale (xyz 1 1 1))
      (rotate (xyz 0 0 0))
    )
  )

  (module Resistors_SMD:R_1206_HandSoldering (layer F.Cu) (tedit 599FDA82) (tstamp 599F128B)
    (at 105.41 115.062 270)
    (descr "Resistor SMD 1206, hand soldering")
    (tags "resistor 1206")
    (path /599F3399)
    (attr smd)
    (fp_text reference R2 (at 0 0 270) (layer F.SilkS)
      (effects (font (size 1 1) (thickness 0.15)))
    )
    (fp_text value 10k (at 0 1.9 270) (layer F.Fab)
      (effects (font (size 1 1) (thickness 0.15)))
    )
    (fp_text user %R (at 0 0 270) (layer F.Fab)
      (effects (font (size 1 1) (thickness 0.15)))
    )
    (fp_line (start -1.6 0.8) (end -1.6 -0.8) (layer F.Fab) (width 0.1))
    (fp_line (start 1.6 0.8) (end -1.6 0.8) (layer F.Fab) (width 0.1))
    (fp_line (start 1.6 -0.8) (end 1.6 0.8) (layer F.Fab) (width 0.1))
    (fp_line (start -1.6 -0.8) (end 1.6 -0.8) (layer F.Fab) (width 0.1))
    (fp_line (start 1 1.07) (end -1 1.07) (layer F.SilkS) (width 0.12))
    (fp_line (start -1 -1.07) (end 1 -1.07) (layer F.SilkS) (width 0.12))
    (fp_line (start -3.25 -1.11) (end 3.25 -1.11) (layer F.CrtYd) (width 0.05))
    (fp_line (start -3.25 -1.11) (end -3.25 1.1) (layer F.CrtYd) (width 0.05))
    (fp_line (start 3.25 1.1) (end 3.25 -1.11) (layer F.CrtYd) (width 0.05))
    (fp_line (start 3.25 1.1) (end -3.25 1.1) (layer F.CrtYd) (width 0.05))
    (pad 1 smd rect (at -2 0 270) (size 2 1.7) (layers F.Cu F.Paste F.Mask)
      (net 4 +1V8))
    (pad 2 smd rect (at 2 0 270) (size 2 1.7) (layers F.Cu F.Paste F.Mask)
      (net 13 /RST))
    (model Resistors_SMD.3dshapes/R_1206.wrl
      (at (xyz 0 0 0))
      (scale (xyz 1 1 1))
      (rotate (xyz 0 0 0))
    )
  )

  (module Resistors_SMD:R_1206_HandSoldering (layer F.Cu) (tedit 599FF8DC) (tstamp 599F1291)
    (at 111.6584 116.586 90)
    (descr "Resistor SMD 1206, hand soldering")
    (tags "resistor 1206")
    (path /599F61FC)
    (attr smd)
    (fp_text reference R3 (at 0.0508 0.0508 90) (layer F.SilkS)
      (effects (font (size 1 1) (thickness 0.15)))
    )
    (fp_text value 4k7 (at 0 1.9 90) (layer F.Fab)
      (effects (font (size 1 1) (thickness 0.15)))
    )
    (fp_text user %R (at 0.0508 0.0508 90) (layer F.Fab)
      (effects (font (size 1 1) (thickness 0.15)))
    )
    (fp_line (start -1.6 0.8) (end -1.6 -0.8) (layer F.Fab) (width 0.1))
    (fp_line (start 1.6 0.8) (end -1.6 0.8) (layer F.Fab) (width 0.1))
    (fp_line (start 1.6 -0.8) (end 1.6 0.8) (layer F.Fab) (width 0.1))
    (fp_line (start -1.6 -0.8) (end 1.6 -0.8) (layer F.Fab) (width 0.1))
    (fp_line (start 1 1.07) (end -1 1.07) (layer F.SilkS) (width 0.12))
    (fp_line (start -1 -1.07) (end 1 -1.07) (layer F.SilkS) (width 0.12))
    (fp_line (start -3.25 -1.11) (end 3.25 -1.11) (layer F.CrtYd) (width 0.05))
    (fp_line (start -3.25 -1.11) (end -3.25 1.1) (layer F.CrtYd) (width 0.05))
    (fp_line (start 3.25 1.1) (end 3.25 -1.11) (layer F.CrtYd) (width 0.05))
    (fp_line (start 3.25 1.1) (end -3.25 1.1) (layer F.CrtYd) (width 0.05))
    (pad 1 smd rect (at -2 0 90) (size 2 1.7) (layers F.Cu F.Paste F.Mask)
      (net 21 "Net-(R3-Pad1)"))
    (pad 2 smd rect (at 2 0 90) (size 2 1.7) (layers F.Cu F.Paste F.Mask)
      (net 10 +5V))
    (model Resistors_SMD.3dshapes/R_1206.wrl
      (at (xyz 0 0 0))
      (scale (xyz 1 1 1))
      (rotate (xyz 0 0 0))
    )
  )

  (module Resistors_SMD:R_1206_HandSoldering (layer F.Cu) (tedit 599FED45) (tstamp 599F129D)
    (at 105.41 121.92 270)
    (descr "Resistor SMD 1206, hand soldering")
    (tags "resistor 1206")
    (path /599F19AF)
    (attr smd)
    (fp_text reference R5 (at 0 0 270) (layer F.SilkS)
      (effects (font (size 1 1) (thickness 0.15)))
    )
    (fp_text value 10k (at 0 1.9 270) (layer F.Fab)
      (effects (font (size 1 1) (thickness 0.15)))
    )
    (fp_text user %R (at 0 0 270) (layer F.Fab)
      (effects (font (size 1 1) (thickness 0.15)))
    )
    (fp_line (start -1.6 0.8) (end -1.6 -0.8) (layer F.Fab) (width 0.1))
    (fp_line (start 1.6 0.8) (end -1.6 0.8) (layer F.Fab) (width 0.1))
    (fp_line (start 1.6 -0.8) (end 1.6 0.8) (layer F.Fab) (width 0.1))
    (fp_line (start -1.6 -0.8) (end 1.6 -0.8) (layer F.Fab) (width 0.1))
    (fp_line (start 1 1.07) (end -1 1.07) (layer F.SilkS) (width 0.12))
    (fp_line (start -1 -1.07) (end 1 -1.07) (layer F.SilkS) (width 0.12))
    (fp_line (start -3.25 -1.11) (end 3.25 -1.11) (layer F.CrtYd) (width 0.05))
    (fp_line (start -3.25 -1.11) (end -3.25 1.1) (layer F.CrtYd) (width 0.05))
    (fp_line (start 3.25 1.1) (end 3.25 -1.11) (layer F.CrtYd) (width 0.05))
    (fp_line (start 3.25 1.1) (end -3.25 1.1) (layer F.CrtYd) (width 0.05))
    (pad 1 smd rect (at -2 0 270) (size 2 1.7) (layers F.Cu F.Paste F.Mask)
      (net 4 +1V8))
    (pad 2 smd rect (at 2 0 270) (size 2 1.7) (layers F.Cu F.Paste F.Mask)
      (net 12 /RXD))
    (model Resistors_SMD.3dshapes/R_1206.wrl
      (at (xyz 0 0 0))
      (scale (xyz 1 1 1))
      (rotate (xyz 0 0 0))
    )
  )

  (module Resistors_SMD:R_1206_HandSoldering (layer F.Cu) (tedit 599FDA7E) (tstamp 599F12A3)
    (at 108.458 129.032)
    (descr "Resistor SMD 1206, hand soldering")
    (tags "resistor 1206")
    (path /599F2185)
    (attr smd)
    (fp_text reference R6 (at 0 0) (layer F.SilkS)
      (effects (font (size 1 1) (thickness 0.15)))
    )
    (fp_text value 10k (at 0 1.9) (layer F.Fab)
      (effects (font (size 1 1) (thickness 0.15)))
    )
    (fp_text user %R (at 0 0) (layer F.Fab)
      (effects (font (size 1 1) (thickness 0.15)))
    )
    (fp_line (start -1.6 0.8) (end -1.6 -0.8) (layer F.Fab) (width 0.1))
    (fp_line (start 1.6 0.8) (end -1.6 0.8) (layer F.Fab) (width 0.1))
    (fp_line (start 1.6 -0.8) (end 1.6 0.8) (layer F.Fab) (width 0.1))
    (fp_line (start -1.6 -0.8) (end 1.6 -0.8) (layer F.Fab) (width 0.1))
    (fp_line (start 1 1.07) (end -1 1.07) (layer F.SilkS) (width 0.12))
    (fp_line (start -1 -1.07) (end 1 -1.07) (layer F.SilkS) (width 0.12))
    (fp_line (start -3.25 -1.11) (end 3.25 -1.11) (layer F.CrtYd) (width 0.05))
    (fp_line (start -3.25 -1.11) (end -3.25 1.1) (layer F.CrtYd) (width 0.05))
    (fp_line (start 3.25 1.1) (end 3.25 -1.11) (layer F.CrtYd) (width 0.05))
    (fp_line (start 3.25 1.1) (end -3.25 1.1) (layer F.CrtYd) (width 0.05))
    (pad 1 smd rect (at -2 0) (size 2 1.7) (layers F.Cu F.Paste F.Mask)
      (net 10 +5V))
    (pad 2 smd rect (at 2 0) (size 2 1.7) (layers F.Cu F.Paste F.Mask)
      (net 15 "Net-(Q3-Pad3)"))
    (model Resistors_SMD.3dshapes/R_1206.wrl
      (at (xyz 0 0 0))
      (scale (xyz 1 1 1))
      (rotate (xyz 0 0 0))
    )
  )

  (module Resistors_SMD:R_1206_HandSoldering (layer F.Cu) (tedit 599FD75E) (tstamp 599F12A9)
    (at 130.048 139.7 90)
    (descr "Resistor SMD 1206, hand soldering")
    (tags "resistor 1206")
    (path /599EF6AB)
    (attr smd)
    (fp_text reference R7 (at 0 0 90) (layer F.SilkS)
      (effects (font (size 1 1) (thickness 0.15)))
    )
    (fp_text value 220 (at 0 1.9 90) (layer F.Fab)
      (effects (font (size 1 1) (thickness 0.15)))
    )
    (fp_text user %R (at 0 0 90) (layer F.Fab)
      (effects (font (size 1 1) (thickness 0.15)))
    )
    (fp_line (start -1.6 0.8) (end -1.6 -0.8) (layer F.Fab) (width 0.1))
    (fp_line (start 1.6 0.8) (end -1.6 0.8) (layer F.Fab) (width 0.1))
    (fp_line (start 1.6 -0.8) (end 1.6 0.8) (layer F.Fab) (width 0.1))
    (fp_line (start -1.6 -0.8) (end 1.6 -0.8) (layer F.Fab) (width 0.1))
    (fp_line (start 1 1.07) (end -1 1.07) (layer F.SilkS) (width 0.12))
    (fp_line (start -1 -1.07) (end 1 -1.07) (layer F.SilkS) (width 0.12))
    (fp_line (start -3.25 -1.11) (end 3.25 -1.11) (layer F.CrtYd) (width 0.05))
    (fp_line (start -3.25 -1.11) (end -3.25 1.1) (layer F.CrtYd) (width 0.05))
    (fp_line (start 3.25 1.1) (end 3.25 -1.11) (layer F.CrtYd) (width 0.05))
    (fp_line (start 3.25 1.1) (end -3.25 1.1) (layer F.CrtYd) (width 0.05))
    (pad 1 smd rect (at -2 0 90) (size 2 1.7) (layers F.Cu F.Paste F.Mask)
      (net 16 "Net-(Q4-Pad1)"))
    (pad 2 smd rect (at 2 0 90) (size 2 1.7) (layers F.Cu F.Paste F.Mask)
      (net 22 "Net-(R7-Pad2)"))
    (model Resistors_SMD.3dshapes/R_1206.wrl
      (at (xyz 0 0 0))
      (scale (xyz 1 1 1))
      (rotate (xyz 0 0 0))
    )
  )

  (module Resistors_SMD:R_1206_HandSoldering (layer F.Cu) (tedit 599FD759) (tstamp 599F12AF)
    (at 130.048 132.334 90)
    (descr "Resistor SMD 1206, hand soldering")
    (tags "resistor 1206")
    (path /599EF724)
    (attr smd)
    (fp_text reference R8 (at 0 0 90) (layer F.SilkS)
      (effects (font (size 1 1) (thickness 0.15)))
    )
    (fp_text value 220 (at 0 1.9 90) (layer F.Fab)
      (effects (font (size 1 1) (thickness 0.15)))
    )
    (fp_text user %R (at 0 0 90) (layer F.Fab)
      (effects (font (size 1 1) (thickness 0.15)))
    )
    (fp_line (start -1.6 0.8) (end -1.6 -0.8) (layer F.Fab) (width 0.1))
    (fp_line (start 1.6 0.8) (end -1.6 0.8) (layer F.Fab) (width 0.1))
    (fp_line (start 1.6 -0.8) (end 1.6 0.8) (layer F.Fab) (width 0.1))
    (fp_line (start -1.6 -0.8) (end 1.6 -0.8) (layer F.Fab) (width 0.1))
    (fp_line (start 1 1.07) (end -1 1.07) (layer F.SilkS) (width 0.12))
    (fp_line (start -1 -1.07) (end 1 -1.07) (layer F.SilkS) (width 0.12))
    (fp_line (start -3.25 -1.11) (end 3.25 -1.11) (layer F.CrtYd) (width 0.05))
    (fp_line (start -3.25 -1.11) (end -3.25 1.1) (layer F.CrtYd) (width 0.05))
    (fp_line (start 3.25 1.1) (end 3.25 -1.11) (layer F.CrtYd) (width 0.05))
    (fp_line (start 3.25 1.1) (end -3.25 1.1) (layer F.CrtYd) (width 0.05))
    (pad 1 smd rect (at -2 0 90) (size 2 1.7) (layers F.Cu F.Paste F.Mask)
      (net 17 "Net-(Q5-Pad1)"))
    (pad 2 smd rect (at 2 0 90) (size 2 1.7) (layers F.Cu F.Paste F.Mask)
      (net 23 "Net-(R8-Pad2)"))
    (model Resistors_SMD.3dshapes/R_1206.wrl
      (at (xyz 0 0 0))
      (scale (xyz 1 1 1))
      (rotate (xyz 0 0 0))
    )
  )

  (module Resistors_SMD:R_1206_HandSoldering (layer F.Cu) (tedit 599FD755) (tstamp 599F12B5)
    (at 130.048 124.968 270)
    (descr "Resistor SMD 1206, hand soldering")
    (tags "resistor 1206")
    (path /599EF767)
    (attr smd)
    (fp_text reference R9 (at 0.254 0 270) (layer F.SilkS)
      (effects (font (size 1 1) (thickness 0.15)))
    )
    (fp_text value 220 (at 0 1.9 270) (layer F.Fab)
      (effects (font (size 1 1) (thickness 0.15)))
    )
    (fp_text user %R (at 0.254 0 270) (layer F.Fab)
      (effects (font (size 1 1) (thickness 0.15)))
    )
    (fp_line (start -1.6 0.8) (end -1.6 -0.8) (layer F.Fab) (width 0.1))
    (fp_line (start 1.6 0.8) (end -1.6 0.8) (layer F.Fab) (width 0.1))
    (fp_line (start 1.6 -0.8) (end 1.6 0.8) (layer F.Fab) (width 0.1))
    (fp_line (start -1.6 -0.8) (end 1.6 -0.8) (layer F.Fab) (width 0.1))
    (fp_line (start 1 1.07) (end -1 1.07) (layer F.SilkS) (width 0.12))
    (fp_line (start -1 -1.07) (end 1 -1.07) (layer F.SilkS) (width 0.12))
    (fp_line (start -3.25 -1.11) (end 3.25 -1.11) (layer F.CrtYd) (width 0.05))
    (fp_line (start -3.25 -1.11) (end -3.25 1.1) (layer F.CrtYd) (width 0.05))
    (fp_line (start 3.25 1.1) (end 3.25 -1.11) (layer F.CrtYd) (width 0.05))
    (fp_line (start 3.25 1.1) (end -3.25 1.1) (layer F.CrtYd) (width 0.05))
    (pad 1 smd rect (at -2 0 270) (size 2 1.7) (layers F.Cu F.Paste F.Mask)
      (net 18 "Net-(Q6-Pad1)"))
    (pad 2 smd rect (at 2 0 270) (size 2 1.7) (layers F.Cu F.Paste F.Mask)
      (net 26 /MOSI))
    (model Resistors_SMD.3dshapes/R_1206.wrl
      (at (xyz 0 0 0))
      (scale (xyz 1 1 1))
      (rotate (xyz 0 0 0))
    )
  )

  (module Resistors_SMD:R_1206_HandSoldering (layer F.Cu) (tedit 599FD751) (tstamp 599F12BB)
    (at 130.048 117.602 270)
    (descr "Resistor SMD 1206, hand soldering")
    (tags "resistor 1206")
    (path /599EF7C0)
    (attr smd)
    (fp_text reference R10 (at 0 0 270) (layer F.SilkS)
      (effects (font (size 1 1) (thickness 0.15)))
    )
    (fp_text value 220 (at 0 1.9 270) (layer F.Fab)
      (effects (font (size 1 1) (thickness 0.15)))
    )
    (fp_text user %R (at 0 0 270) (layer F.Fab)
      (effects (font (size 1 1) (thickness 0.15)))
    )
    (fp_line (start -1.6 0.8) (end -1.6 -0.8) (layer F.Fab) (width 0.1))
    (fp_line (start 1.6 0.8) (end -1.6 0.8) (layer F.Fab) (width 0.1))
    (fp_line (start 1.6 -0.8) (end 1.6 0.8) (layer F.Fab) (width 0.1))
    (fp_line (start -1.6 -0.8) (end 1.6 -0.8) (layer F.Fab) (width 0.1))
    (fp_line (start 1 1.07) (end -1 1.07) (layer F.SilkS) (width 0.12))
    (fp_line (start -1 -1.07) (end 1 -1.07) (layer F.SilkS) (width 0.12))
    (fp_line (start -3.25 -1.11) (end 3.25 -1.11) (layer F.CrtYd) (width 0.05))
    (fp_line (start -3.25 -1.11) (end -3.25 1.1) (layer F.CrtYd) (width 0.05))
    (fp_line (start 3.25 1.1) (end 3.25 -1.11) (layer F.CrtYd) (width 0.05))
    (fp_line (start 3.25 1.1) (end -3.25 1.1) (layer F.CrtYd) (width 0.05))
    (pad 1 smd rect (at -2 0 270) (size 2 1.7) (layers F.Cu F.Paste F.Mask)
      (net 19 "Net-(Q7-Pad1)"))
    (pad 2 smd rect (at 2 0 270) (size 2 1.7) (layers F.Cu F.Paste F.Mask)
      (net 25 /MISO))
    (model Resistors_SMD.3dshapes/R_1206.wrl
      (at (xyz 0 0 0))
      (scale (xyz 1 1 1))
      (rotate (xyz 0 0 0))
    )
  )

  (module Resistors_SMD:R_1206_HandSoldering (layer F.Cu) (tedit 599FD74C) (tstamp 599F12C1)
    (at 130.048 110.236 270)
    (descr "Resistor SMD 1206, hand soldering")
    (tags "resistor 1206")
    (path /599EF823)
    (attr smd)
    (fp_text reference R11 (at 0 0 270) (layer F.SilkS)
      (effects (font (size 1 1) (thickness 0.15)))
    )
    (fp_text value 220 (at 0 1.9 270) (layer F.Fab)
      (effects (font (size 1 1) (thickness 0.15)))
    )
    (fp_text user %R (at 0 0 270) (layer F.Fab)
      (effects (font (size 1 1) (thickness 0.15)))
    )
    (fp_line (start -1.6 0.8) (end -1.6 -0.8) (layer F.Fab) (width 0.1))
    (fp_line (start 1.6 0.8) (end -1.6 0.8) (layer F.Fab) (width 0.1))
    (fp_line (start 1.6 -0.8) (end 1.6 0.8) (layer F.Fab) (width 0.1))
    (fp_line (start -1.6 -0.8) (end 1.6 -0.8) (layer F.Fab) (width 0.1))
    (fp_line (start 1 1.07) (end -1 1.07) (layer F.SilkS) (width 0.12))
    (fp_line (start -1 -1.07) (end 1 -1.07) (layer F.SilkS) (width 0.12))
    (fp_line (start -3.25 -1.11) (end 3.25 -1.11) (layer F.CrtYd) (width 0.05))
    (fp_line (start -3.25 -1.11) (end -3.25 1.1) (layer F.CrtYd) (width 0.05))
    (fp_line (start 3.25 1.1) (end 3.25 -1.11) (layer F.CrtYd) (width 0.05))
    (fp_line (start 3.25 1.1) (end -3.25 1.1) (layer F.CrtYd) (width 0.05))
    (pad 1 smd rect (at -2 0 270) (size 2 1.7) (layers F.Cu F.Paste F.Mask)
      (net 20 "Net-(Q8-Pad1)"))
    (pad 2 smd rect (at 2 0 270) (size 2 1.7) (layers F.Cu F.Paste F.Mask)
      (net 24 /SCK))
    (model Resistors_SMD.3dshapes/R_1206.wrl
      (at (xyz 0 0 0))
      (scale (xyz 1 1 1))
      (rotate (xyz 0 0 0))
    )
  )

  (module Resistors_SMD:R_1206_HandSoldering (layer F.Cu) (tedit 599FD767) (tstamp 599F12C7)
    (at 132.334 139.7 270)
    (descr "Resistor SMD 1206, hand soldering")
    (tags "resistor 1206")
    (path /599EF13D)
    (attr smd)
    (fp_text reference R12 (at 0 0 270) (layer F.SilkS)
      (effects (font (size 1 1) (thickness 0.15)))
    )
    (fp_text value 10k (at 0 1.9 270) (layer F.Fab)
      (effects (font (size 1 1) (thickness 0.15)))
    )
    (fp_text user %R (at 0 0 270) (layer F.Fab)
      (effects (font (size 1 1) (thickness 0.15)))
    )
    (fp_line (start -1.6 0.8) (end -1.6 -0.8) (layer F.Fab) (width 0.1))
    (fp_line (start 1.6 0.8) (end -1.6 0.8) (layer F.Fab) (width 0.1))
    (fp_line (start 1.6 -0.8) (end 1.6 0.8) (layer F.Fab) (width 0.1))
    (fp_line (start -1.6 -0.8) (end 1.6 -0.8) (layer F.Fab) (width 0.1))
    (fp_line (start 1 1.07) (end -1 1.07) (layer F.SilkS) (width 0.12))
    (fp_line (start -1 -1.07) (end 1 -1.07) (layer F.SilkS) (width 0.12))
    (fp_line (start -3.25 -1.11) (end 3.25 -1.11) (layer F.CrtYd) (width 0.05))
    (fp_line (start -3.25 -1.11) (end -3.25 1.1) (layer F.CrtYd) (width 0.05))
    (fp_line (start 3.25 1.1) (end 3.25 -1.11) (layer F.CrtYd) (width 0.05))
    (fp_line (start 3.25 1.1) (end -3.25 1.1) (layer F.CrtYd) (width 0.05))
    (pad 1 smd rect (at -2 0 270) (size 2 1.7) (layers F.Cu F.Paste F.Mask)
      (net 16 "Net-(Q4-Pad1)"))
    (pad 2 smd rect (at 2 0 270) (size 2 1.7) (layers F.Cu F.Paste F.Mask)
      (net 1 GND))
    (model Resistors_SMD.3dshapes/R_1206.wrl
      (at (xyz 0 0 0))
      (scale (xyz 1 1 1))
      (rotate (xyz 0 0 0))
    )
  )

  (module Resistors_SMD:R_1206_HandSoldering (layer F.Cu) (tedit 599FD76F) (tstamp 599F12CD)
    (at 132.334 132.334 270)
    (descr "Resistor SMD 1206, hand soldering")
    (tags "resistor 1206")
    (path /599EF1A4)
    (attr smd)
    (fp_text reference R13 (at 0 0 270) (layer F.SilkS)
      (effects (font (size 1 1) (thickness 0.15)))
    )
    (fp_text value 10k (at 0 1.9 270) (layer F.Fab)
      (effects (font (size 1 1) (thickness 0.15)))
    )
    (fp_text user %R (at 0 0 270) (layer F.Fab)
      (effects (font (size 1 1) (thickness 0.15)))
    )
    (fp_line (start -1.6 0.8) (end -1.6 -0.8) (layer F.Fab) (width 0.1))
    (fp_line (start 1.6 0.8) (end -1.6 0.8) (layer F.Fab) (width 0.1))
    (fp_line (start 1.6 -0.8) (end 1.6 0.8) (layer F.Fab) (width 0.1))
    (fp_line (start -1.6 -0.8) (end 1.6 -0.8) (layer F.Fab) (width 0.1))
    (fp_line (start 1 1.07) (end -1 1.07) (layer F.SilkS) (width 0.12))
    (fp_line (start -1 -1.07) (end 1 -1.07) (layer F.SilkS) (width 0.12))
    (fp_line (start -3.25 -1.11) (end 3.25 -1.11) (layer F.CrtYd) (width 0.05))
    (fp_line (start -3.25 -1.11) (end -3.25 1.1) (layer F.CrtYd) (width 0.05))
    (fp_line (start 3.25 1.1) (end 3.25 -1.11) (layer F.CrtYd) (width 0.05))
    (fp_line (start 3.25 1.1) (end -3.25 1.1) (layer F.CrtYd) (width 0.05))
    (pad 1 smd rect (at -2 0 270) (size 2 1.7) (layers F.Cu F.Paste F.Mask)
      (net 17 "Net-(Q5-Pad1)"))
    (pad 2 smd rect (at 2 0 270) (size 2 1.7) (layers F.Cu F.Paste F.Mask)
      (net 1 GND))
    (model Resistors_SMD.3dshapes/R_1206.wrl
      (at (xyz 0 0 0))
      (scale (xyz 1 1 1))
      (rotate (xyz 0 0 0))
    )
  )

  (module Resistors_SMD:R_1206_HandSoldering (layer F.Cu) (tedit 599FD774) (tstamp 599F12D3)
    (at 132.334 124.968 270)
    (descr "Resistor SMD 1206, hand soldering")
    (tags "resistor 1206")
    (path /599EF1F7)
    (attr smd)
    (fp_text reference R14 (at 0 0 270) (layer F.SilkS)
      (effects (font (size 1 1) (thickness 0.15)))
    )
    (fp_text value 10k (at 0 1.9 270) (layer F.Fab)
      (effects (font (size 1 1) (thickness 0.15)))
    )
    (fp_text user %R (at 0 0 270) (layer F.Fab)
      (effects (font (size 1 1) (thickness 0.15)))
    )
    (fp_line (start -1.6 0.8) (end -1.6 -0.8) (layer F.Fab) (width 0.1))
    (fp_line (start 1.6 0.8) (end -1.6 0.8) (layer F.Fab) (width 0.1))
    (fp_line (start 1.6 -0.8) (end 1.6 0.8) (layer F.Fab) (width 0.1))
    (fp_line (start -1.6 -0.8) (end 1.6 -0.8) (layer F.Fab) (width 0.1))
    (fp_line (start 1 1.07) (end -1 1.07) (layer F.SilkS) (width 0.12))
    (fp_line (start -1 -1.07) (end 1 -1.07) (layer F.SilkS) (width 0.12))
    (fp_line (start -3.25 -1.11) (end 3.25 -1.11) (layer F.CrtYd) (width 0.05))
    (fp_line (start -3.25 -1.11) (end -3.25 1.1) (layer F.CrtYd) (width 0.05))
    (fp_line (start 3.25 1.1) (end 3.25 -1.11) (layer F.CrtYd) (width 0.05))
    (fp_line (start 3.25 1.1) (end -3.25 1.1) (layer F.CrtYd) (width 0.05))
    (pad 1 smd rect (at -2 0 270) (size 2 1.7) (layers F.Cu F.Paste F.Mask)
      (net 18 "Net-(Q6-Pad1)"))
    (pad 2 smd rect (at 2 0 270) (size 2 1.7) (layers F.Cu F.Paste F.Mask)
      (net 1 GND))
    (model Resistors_SMD.3dshapes/R_1206.wrl
      (at (xyz 0 0 0))
      (scale (xyz 1 1 1))
      (rotate (xyz 0 0 0))
    )
  )

  (module Resistors_SMD:R_1206_HandSoldering (layer F.Cu) (tedit 599FD77A) (tstamp 599F12D9)
    (at 132.334 117.602 270)
    (descr "Resistor SMD 1206, hand soldering")
    (tags "resistor 1206")
    (path /599EF240)
    (attr smd)
    (fp_text reference R15 (at 0 0 270) (layer F.SilkS)
      (effects (font (size 1 1) (thickness 0.15)))
    )
    (fp_text value 10k (at 0 1.9 270) (layer F.Fab)
      (effects (font (size 1 1) (thickness 0.15)))
    )
    (fp_text user %R (at 0 0 270) (layer F.Fab)
      (effects (font (size 1 1) (thickness 0.15)))
    )
    (fp_line (start -1.6 0.8) (end -1.6 -0.8) (layer F.Fab) (width 0.1))
    (fp_line (start 1.6 0.8) (end -1.6 0.8) (layer F.Fab) (width 0.1))
    (fp_line (start 1.6 -0.8) (end 1.6 0.8) (layer F.Fab) (width 0.1))
    (fp_line (start -1.6 -0.8) (end 1.6 -0.8) (layer F.Fab) (width 0.1))
    (fp_line (start 1 1.07) (end -1 1.07) (layer F.SilkS) (width 0.12))
    (fp_line (start -1 -1.07) (end 1 -1.07) (layer F.SilkS) (width 0.12))
    (fp_line (start -3.25 -1.11) (end 3.25 -1.11) (layer F.CrtYd) (width 0.05))
    (fp_line (start -3.25 -1.11) (end -3.25 1.1) (layer F.CrtYd) (width 0.05))
    (fp_line (start 3.25 1.1) (end 3.25 -1.11) (layer F.CrtYd) (width 0.05))
    (fp_line (start 3.25 1.1) (end -3.25 1.1) (layer F.CrtYd) (width 0.05))
    (pad 1 smd rect (at -2 0 270) (size 2 1.7) (layers F.Cu F.Paste F.Mask)
      (net 19 "Net-(Q7-Pad1)"))
    (pad 2 smd rect (at 2 0 270) (size 2 1.7) (layers F.Cu F.Paste F.Mask)
      (net 1 GND))
    (model Resistors_SMD.3dshapes/R_1206.wrl
      (at (xyz 0 0 0))
      (scale (xyz 1 1 1))
      (rotate (xyz 0 0 0))
    )
  )

  (module Resistors_SMD:R_1206_HandSoldering (layer F.Cu) (tedit 599FD783) (tstamp 599F12DF)
    (at 132.334 110.236 270)
    (descr "Resistor SMD 1206, hand soldering")
    (tags "resistor 1206")
    (path /599EF291)
    (attr smd)
    (fp_text reference R16 (at 0 0 270) (layer F.SilkS)
      (effects (font (size 1 1) (thickness 0.15)))
    )
    (fp_text value 10k (at 0 1.9 270) (layer F.Fab)
      (effects (font (size 1 1) (thickness 0.15)))
    )
    (fp_text user %R (at 0 0 270) (layer F.Fab)
      (effects (font (size 1 1) (thickness 0.15)))
    )
    (fp_line (start -1.6 0.8) (end -1.6 -0.8) (layer F.Fab) (width 0.1))
    (fp_line (start 1.6 0.8) (end -1.6 0.8) (layer F.Fab) (width 0.1))
    (fp_line (start 1.6 -0.8) (end 1.6 0.8) (layer F.Fab) (width 0.1))
    (fp_line (start -1.6 -0.8) (end 1.6 -0.8) (layer F.Fab) (width 0.1))
    (fp_line (start 1 1.07) (end -1 1.07) (layer F.SilkS) (width 0.12))
    (fp_line (start -1 -1.07) (end 1 -1.07) (layer F.SilkS) (width 0.12))
    (fp_line (start -3.25 -1.11) (end 3.25 -1.11) (layer F.CrtYd) (width 0.05))
    (fp_line (start -3.25 -1.11) (end -3.25 1.1) (layer F.CrtYd) (width 0.05))
    (fp_line (start 3.25 1.1) (end 3.25 -1.11) (layer F.CrtYd) (width 0.05))
    (fp_line (start 3.25 1.1) (end -3.25 1.1) (layer F.CrtYd) (width 0.05))
    (pad 1 smd rect (at -2 0 270) (size 2 1.7) (layers F.Cu F.Paste F.Mask)
      (net 20 "Net-(Q8-Pad1)"))
    (pad 2 smd rect (at 2 0 270) (size 2 1.7) (layers F.Cu F.Paste F.Mask)
      (net 1 GND))
    (model Resistors_SMD.3dshapes/R_1206.wrl
      (at (xyz 0 0 0))
      (scale (xyz 1 1 1))
      (rotate (xyz 0 0 0))
    )
  )

  (module Resistors_SMD:R_1206_HandSoldering (layer F.Cu) (tedit 599FEE7C) (tstamp 599F12E5)
    (at 105.41 133.604 270)
    (descr "Resistor SMD 1206, hand soldering")
    (tags "resistor 1206")
    (path /599F218B)
    (attr smd)
    (fp_text reference R17 (at 0 0 270) (layer F.SilkS)
      (effects (font (size 1 1) (thickness 0.15)))
    )
    (fp_text value 10k (at 0 1.9 270) (layer F.Fab)
      (effects (font (size 1 1) (thickness 0.15)))
    )
    (fp_text user %R (at 0 0 270) (layer F.Fab)
      (effects (font (size 1 1) (thickness 0.15)))
    )
    (fp_line (start -1.6 0.8) (end -1.6 -0.8) (layer F.Fab) (width 0.1))
    (fp_line (start 1.6 0.8) (end -1.6 0.8) (layer F.Fab) (width 0.1))
    (fp_line (start 1.6 -0.8) (end 1.6 0.8) (layer F.Fab) (width 0.1))
    (fp_line (start -1.6 -0.8) (end 1.6 -0.8) (layer F.Fab) (width 0.1))
    (fp_line (start 1 1.07) (end -1 1.07) (layer F.SilkS) (width 0.12))
    (fp_line (start -1 -1.07) (end 1 -1.07) (layer F.SilkS) (width 0.12))
    (fp_line (start -3.25 -1.11) (end 3.25 -1.11) (layer F.CrtYd) (width 0.05))
    (fp_line (start -3.25 -1.11) (end -3.25 1.1) (layer F.CrtYd) (width 0.05))
    (fp_line (start 3.25 1.1) (end 3.25 -1.11) (layer F.CrtYd) (width 0.05))
    (fp_line (start 3.25 1.1) (end -3.25 1.1) (layer F.CrtYd) (width 0.05))
    (pad 1 smd rect (at -2 0 270) (size 2 1.7) (layers F.Cu F.Paste F.Mask)
      (net 4 +1V8))
    (pad 2 smd rect (at 2 0 270) (size 2 1.7) (layers F.Cu F.Paste F.Mask)
      (net 11 /TXD))
    (model Resistors_SMD.3dshapes/R_1206.wrl
      (at (xyz 0 0 0))
      (scale (xyz 1 1 1))
      (rotate (xyz 0 0 0))
    )
  )

  (module Housings_QFP:TQFP-32_7x7mm_Pitch0.8mm (layer F.Cu) (tedit 599FEE88) (tstamp 599F1309)
    (at 118.11 125.222 90)
    (descr "32-Lead Plastic Thin Quad Flatpack (PT) - 7x7x1.0 mm Body, 2.00 mm [TQFP] (see Microchip Packaging Specification 00000049BS.pdf)")
    (tags "QFP 0.8")
    (path /599EE2A8)
    (attr smd)
    (fp_text reference U1 (at 2.54 -2.286 180) (layer F.SilkS)
      (effects (font (size 1 1) (thickness 0.15)))
    )
    (fp_text value ATMEGA8-16AU (at 0 6.05 90) (layer F.Fab)
      (effects (font (size 1 1) (thickness 0.15)))
    )
    (fp_text user %R (at 2.54 -2.286 180) (layer F.Fab)
      (effects (font (size 1 1) (thickness 0.15)))
    )
    (fp_line (start -2.5 -3.5) (end 3.5 -3.5) (layer F.Fab) (width 0.15))
    (fp_line (start 3.5 -3.5) (end 3.5 3.5) (layer F.Fab) (width 0.15))
    (fp_line (start 3.5 3.5) (end -3.5 3.5) (layer F.Fab) (width 0.15))
    (fp_line (start -3.5 3.5) (end -3.5 -2.5) (layer F.Fab) (width 0.15))
    (fp_line (start -3.5 -2.5) (end -2.5 -3.5) (layer F.Fab) (width 0.15))
    (fp_line (start -5.3 -5.3) (end -5.3 5.3) (layer F.CrtYd) (width 0.05))
    (fp_line (start 5.3 -5.3) (end 5.3 5.3) (layer F.CrtYd) (width 0.05))
    (fp_line (start -5.3 -5.3) (end 5.3 -5.3) (layer F.CrtYd) (width 0.05))
    (fp_line (start -5.3 5.3) (end 5.3 5.3) (layer F.CrtYd) (width 0.05))
    (fp_line (start -3.625 -3.625) (end -3.625 -3.4) (layer F.SilkS) (width 0.15))
    (fp_line (start 3.625 -3.625) (end 3.625 -3.3) (layer F.SilkS) (width 0.15))
    (fp_line (start 3.625 3.625) (end 3.625 3.3) (layer F.SilkS) (width 0.15))
    (fp_line (start -3.625 3.625) (end -3.625 3.3) (layer F.SilkS) (width 0.15))
    (fp_line (start -3.625 -3.625) (end -3.3 -3.625) (layer F.SilkS) (width 0.15))
    (fp_line (start -3.625 3.625) (end -3.3 3.625) (layer F.SilkS) (width 0.15))
    (fp_line (start 3.625 3.625) (end 3.3 3.625) (layer F.SilkS) (width 0.15))
    (fp_line (start 3.625 -3.625) (end 3.3 -3.625) (layer F.SilkS) (width 0.15))
    (fp_line (start -3.625 -3.4) (end -5.05 -3.4) (layer F.SilkS) (width 0.15))
    (pad 1 smd rect (at -4.25 -2.8 90) (size 1.6 0.55) (layers F.Cu F.Paste F.Mask))
    (pad 2 smd rect (at -4.25 -2 90) (size 1.6 0.55) (layers F.Cu F.Paste F.Mask))
    (pad 3 smd rect (at -4.25 -1.2 90) (size 1.6 0.55) (layers F.Cu F.Paste F.Mask)
      (net 1 GND))
    (pad 4 smd rect (at -4.25 -0.4 90) (size 1.6 0.55) (layers F.Cu F.Paste F.Mask)
      (net 10 +5V))
    (pad 5 smd rect (at -4.25 0.4 90) (size 1.6 0.55) (layers F.Cu F.Paste F.Mask)
      (net 1 GND))
    (pad 6 smd rect (at -4.25 1.2 90) (size 1.6 0.55) (layers F.Cu F.Paste F.Mask)
      (net 10 +5V))
    (pad 7 smd rect (at -4.25 2 90) (size 1.6 0.55) (layers F.Cu F.Paste F.Mask)
      (net 2 "Net-(C2-Pad1)"))
    (pad 8 smd rect (at -4.25 2.8 90) (size 1.6 0.55) (layers F.Cu F.Paste F.Mask)
      (net 3 "Net-(C3-Pad1)"))
    (pad 9 smd rect (at -2.8 4.25 180) (size 1.6 0.55) (layers F.Cu F.Paste F.Mask))
    (pad 10 smd rect (at -2 4.25 180) (size 1.6 0.55) (layers F.Cu F.Paste F.Mask))
    (pad 11 smd rect (at -1.2 4.25 180) (size 1.6 0.55) (layers F.Cu F.Paste F.Mask))
    (pad 12 smd rect (at -0.4 4.25 180) (size 1.6 0.55) (layers F.Cu F.Paste F.Mask))
    (pad 13 smd rect (at 0.4 4.25 180) (size 1.6 0.55) (layers F.Cu F.Paste F.Mask)
      (net 22 "Net-(R7-Pad2)"))
    (pad 14 smd rect (at 1.2 4.25 180) (size 1.6 0.55) (layers F.Cu F.Paste F.Mask)
      (net 23 "Net-(R8-Pad2)"))
    (pad 15 smd rect (at 2 4.25 180) (size 1.6 0.55) (layers F.Cu F.Paste F.Mask)
      (net 26 /MOSI))
    (pad 16 smd rect (at 2.8 4.25 180) (size 1.6 0.55) (layers F.Cu F.Paste F.Mask)
      (net 25 /MISO))
    (pad 17 smd rect (at 4.25 2.8 90) (size 1.6 0.55) (layers F.Cu F.Paste F.Mask)
      (net 24 /SCK))
    (pad 18 smd rect (at 4.25 2 90) (size 1.6 0.55) (layers F.Cu F.Paste F.Mask)
      (net 10 +5V))
    (pad 19 smd rect (at 4.25 1.2 90) (size 1.6 0.55) (layers F.Cu F.Paste F.Mask))
    (pad 20 smd rect (at 4.25 0.4 90) (size 1.6 0.55) (layers F.Cu F.Paste F.Mask))
    (pad 21 smd rect (at 4.25 -0.4 90) (size 1.6 0.55) (layers F.Cu F.Paste F.Mask)
      (net 1 GND))
    (pad 22 smd rect (at 4.25 -1.2 90) (size 1.6 0.55) (layers F.Cu F.Paste F.Mask))
    (pad 23 smd rect (at 4.25 -2 90) (size 1.6 0.55) (layers F.Cu F.Paste F.Mask))
    (pad 24 smd rect (at 4.25 -2.8 90) (size 1.6 0.55) (layers F.Cu F.Paste F.Mask)
      (net 21 "Net-(R3-Pad1)"))
    (pad 25 smd rect (at 2.8 -4.25 180) (size 1.6 0.55) (layers F.Cu F.Paste F.Mask))
    (pad 26 smd rect (at 2 -4.25 180) (size 1.6 0.55) (layers F.Cu F.Paste F.Mask))
    (pad 27 smd rect (at 1.2 -4.25 180) (size 1.6 0.55) (layers F.Cu F.Paste F.Mask))
    (pad 28 smd rect (at 0.4 -4.25 180) (size 1.6 0.55) (layers F.Cu F.Paste F.Mask))
    (pad 29 smd rect (at -0.4 -4.25 180) (size 1.6 0.55) (layers F.Cu F.Paste F.Mask)
      (net 27 /AVRRST))
    (pad 30 smd rect (at -1.2 -4.25 180) (size 1.6 0.55) (layers F.Cu F.Paste F.Mask)
      (net 14 "Net-(Q2-Pad3)"))
    (pad 31 smd rect (at -2 -4.25 180) (size 1.6 0.55) (layers F.Cu F.Paste F.Mask)
      (net 15 "Net-(Q3-Pad3)"))
    (pad 32 smd rect (at -2.8 -4.25 180) (size 1.6 0.55) (layers F.Cu F.Paste F.Mask))
    (model Housings_QFP.3dshapes/TQFP-32_7x7mm_Pitch0.8mm.wrl
      (at (xyz 0 0 0))
      (scale (xyz 1 1 1))
      (rotate (xyz 0 0 0))
    )
  )

  (module TO_SOT_Packages_THT:TO-92_Inline_Wide (layer B.Cu) (tedit 58610935) (tstamp 599F1310)
    (at 115.824 118.11 90)
    (descr "TO-92 leads in-line, wide, drill 0.8mm (see NXP sot054_po.pdf)")
    (tags "to-92 sc-43 sc-43a sot54 PA33 transistor")
    (path /599F54D5)
    (fp_text reference U2 (at 2.54 3.56 270) (layer B.SilkS)
      (effects (font (size 1 1) (thickness 0.15)) (justify mirror))
    )
    (fp_text value DS18B20 (at 2.54 -2.79 90) (layer B.Fab)
      (effects (font (size 1 1) (thickness 0.15)) (justify mirror))
    )
    (fp_text user %R (at 2.54 3.56 270) (layer B.Fab)
      (effects (font (size 1 1) (thickness 0.15)) (justify mirror))
    )
    (fp_line (start 0.74 -1.85) (end 4.34 -1.85) (layer B.SilkS) (width 0.12))
    (fp_line (start 0.8 -1.75) (end 4.3 -1.75) (layer B.Fab) (width 0.1))
    (fp_line (start -1.01 2.73) (end 6.09 2.73) (layer B.CrtYd) (width 0.05))
    (fp_line (start -1.01 2.73) (end -1.01 -2.01) (layer B.CrtYd) (width 0.05))
    (fp_line (start 6.09 -2.01) (end 6.09 2.73) (layer B.CrtYd) (width 0.05))
    (fp_line (start 6.09 -2.01) (end -1.01 -2.01) (layer B.CrtYd) (width 0.05))
    (fp_arc (start 2.54 0) (end 0.74 -1.85) (angle -20) (layer B.SilkS) (width 0.12))
    (fp_arc (start 2.54 0) (end 2.54 2.6) (angle 65) (layer B.SilkS) (width 0.12))
    (fp_arc (start 2.54 0) (end 2.54 2.6) (angle -65) (layer B.SilkS) (width 0.12))
    (fp_arc (start 2.54 0) (end 2.54 2.48) (angle -135) (layer B.Fab) (width 0.1))
    (fp_arc (start 2.54 0) (end 2.54 2.48) (angle 135) (layer B.Fab) (width 0.1))
    (fp_arc (start 2.54 0) (end 4.34 -1.85) (angle 20) (layer B.SilkS) (width 0.12))
    (pad 2 thru_hole circle (at 2.54 0) (size 1.52 1.52) (drill 0.8) (layers *.Cu *.Mask)
      (net 21 "Net-(R3-Pad1)"))
    (pad 3 thru_hole circle (at 5.08 0) (size 1.52 1.52) (drill 0.8) (layers *.Cu *.Mask)
      (net 10 +5V))
    (pad 1 thru_hole rect (at 0 0) (size 1.52 1.52) (drill 0.8) (layers *.Cu *.Mask)
      (net 1 GND))
    (model TO_SOT_Packages_THT.3dshapes/TO-92_Inline_Wide.wrl
      (at (xyz 0.1 0 0))
      (scale (xyz 1 1 1))
      (rotate (xyz 0 0 -90))
    )
  )

  (module Crystals:Crystal_HC49-U_Vertical (layer B.Cu) (tedit 58778B02) (tstamp 599F1316)
    (at 119.888 134.874)
    (descr "Crystal THT HC-49/U http://5hertz.com/pdfs/04404_D.pdf")
    (tags "THT crystalHC-49/U")
    (path /599EE3D1)
    (fp_text reference Y1 (at 2.44 3.525) (layer B.SilkS)
      (effects (font (size 1 1) (thickness 0.15)) (justify mirror))
    )
    (fp_text value 16MHz (at 2.44 -3.525) (layer B.Fab)
      (effects (font (size 1 1) (thickness 0.15)) (justify mirror))
    )
    (fp_arc (start -0.685 0) (end -0.685 2.325) (angle 180) (layer B.Fab) (width 0.1))
    (fp_arc (start 5.565 0) (end 5.565 2.325) (angle -180) (layer B.Fab) (width 0.1))
    (fp_arc (start -0.56 0) (end -0.56 2) (angle 180) (layer B.Fab) (width 0.1))
    (fp_arc (start 5.44 0) (end 5.44 2) (angle -180) (layer B.Fab) (width 0.1))
    (fp_arc (start -0.685 0) (end -0.685 2.525) (angle 180) (layer B.SilkS) (width 0.12))
    (fp_arc (start 5.565 0) (end 5.565 2.525) (angle -180) (layer B.SilkS) (width 0.12))
    (fp_line (start -0.685 2.325) (end 5.565 2.325) (layer B.Fab) (width 0.1))
    (fp_line (start -0.685 -2.325) (end 5.565 -2.325) (layer B.Fab) (width 0.1))
    (fp_line (start -0.56 2) (end 5.44 2) (layer B.Fab) (width 0.1))
    (fp_line (start -0.56 -2) (end 5.44 -2) (layer B.Fab) (width 0.1))
    (fp_line (start -0.685 2.525) (end 5.565 2.525) (layer B.SilkS) (width 0.12))
    (fp_line (start -0.685 -2.525) (end 5.565 -2.525) (layer B.SilkS) (width 0.12))
    (fp_line (start -3.5 2.8) (end -3.5 -2.8) (layer B.CrtYd) (width 0.05))
    (fp_line (start -3.5 -2.8) (end 8.4 -2.8) (layer B.CrtYd) (width 0.05))
    (fp_line (start 8.4 -2.8) (end 8.4 2.8) (layer B.CrtYd) (width 0.05))
    (fp_line (start 8.4 2.8) (end -3.5 2.8) (layer B.CrtYd) (width 0.05))
    (pad 1 thru_hole circle (at 0 0) (size 1.5 1.5) (drill 0.8) (layers *.Cu *.Mask)
      (net 2 "Net-(C2-Pad1)"))
    (pad 2 thru_hole circle (at 4.88 0) (size 1.5 1.5) (drill 0.8) (layers *.Cu *.Mask)
      (net 3 "Net-(C3-Pad1)"))
    (model Crystals.3dshapes/Crystal_HC49-U_Vertical.wrl
      (at (xyz 0 0 0))
      (scale (xyz 0.393701 0.393701 0.393701))
      (rotate (xyz 0 0 0))
    )
  )

  (module Pin_Headers:Pin_Header_Straight_1x05_Pitch2.54mm (layer B.Cu) (tedit 5862ED52) (tstamp 599F194A)
    (at 127 123.952)
    (descr "Through hole straight pin header, 1x05, 2.54mm pitch, single row")
    (tags "Through hole pin header THT 1x05 2.54mm single row")
    (path /599F9670)
    (fp_text reference J8 (at 0 2.39) (layer B.SilkS)
      (effects (font (size 1 1) (thickness 0.15)) (justify mirror))
    )
    (fp_text value ISP (at 0 -12.55) (layer B.Fab)
      (effects (font (size 1 1) (thickness 0.15)) (justify mirror))
    )
    (fp_line (start -1.27 1.27) (end -1.27 -11.43) (layer B.Fab) (width 0.1))
    (fp_line (start -1.27 -11.43) (end 1.27 -11.43) (layer B.Fab) (width 0.1))
    (fp_line (start 1.27 -11.43) (end 1.27 1.27) (layer B.Fab) (width 0.1))
    (fp_line (start 1.27 1.27) (end -1.27 1.27) (layer B.Fab) (width 0.1))
    (fp_line (start -1.39 -1.27) (end -1.39 -11.55) (layer B.SilkS) (width 0.12))
    (fp_line (start -1.39 -11.55) (end 1.39 -11.55) (layer B.SilkS) (width 0.12))
    (fp_line (start 1.39 -11.55) (end 1.39 -1.27) (layer B.SilkS) (width 0.12))
    (fp_line (start 1.39 -1.27) (end -1.39 -1.27) (layer B.SilkS) (width 0.12))
    (fp_line (start -1.39 0) (end -1.39 1.39) (layer B.SilkS) (width 0.12))
    (fp_line (start -1.39 1.39) (end 0 1.39) (layer B.SilkS) (width 0.12))
    (fp_line (start -1.6 1.6) (end -1.6 -11.7) (layer B.CrtYd) (width 0.05))
    (fp_line (start -1.6 -11.7) (end 1.6 -11.7) (layer B.CrtYd) (width 0.05))
    (fp_line (start 1.6 -11.7) (end 1.6 1.6) (layer B.CrtYd) (width 0.05))
    (fp_line (start 1.6 1.6) (end -1.6 1.6) (layer B.CrtYd) (width 0.05))
    (pad 1 thru_hole rect (at 0 0) (size 1.7 1.7) (drill 1) (layers *.Cu *.Mask)
      (net 26 /MOSI))
    (pad 2 thru_hole oval (at 0 -2.54) (size 1.7 1.7) (drill 1) (layers *.Cu *.Mask)
      (net 1 GND))
    (pad 3 thru_hole oval (at 0 -5.08) (size 1.7 1.7) (drill 1) (layers *.Cu *.Mask)
      (net 25 /MISO))
    (pad 4 thru_hole oval (at 0 -7.62) (size 1.7 1.7) (drill 1) (layers *.Cu *.Mask)
      (net 24 /SCK))
    (pad 5 thru_hole oval (at 0 -10.16) (size 1.7 1.7) (drill 1) (layers *.Cu *.Mask)
      (net 27 /AVRRST))
    (model Pin_Headers.3dshapes/Pin_Header_Straight_1x05_Pitch2.54mm.wrl
      (at (xyz 0 -0.2 0))
      (scale (xyz 1 1 1))
      (rotate (xyz 0 0 90))
    )
  )

  (module Resistors_SMD:R_1206_HandSoldering (layer F.Cu) (tedit 58AADA36) (tstamp 599FF8F9)
    (at 119.634 110.363)
    (descr "Resistor SMD 1206, hand soldering")
    (tags "resistor 1206")
    (path /59A00484)
    (attr smd)
    (fp_text reference R18 (at 0 -1.85) (layer F.SilkS)
      (effects (font (size 1 1) (thickness 0.15)))
    )
    (fp_text value 0 (at 0 1.9) (layer F.Fab)
      (effects (font (size 1 1) (thickness 0.15)))
    )
    (fp_text user %R (at 0 -1.85) (layer F.Fab)
      (effects (font (size 1 1) (thickness 0.15)))
    )
    (fp_line (start -1.6 0.8) (end -1.6 -0.8) (layer F.Fab) (width 0.1))
    (fp_line (start 1.6 0.8) (end -1.6 0.8) (layer F.Fab) (width 0.1))
    (fp_line (start 1.6 -0.8) (end 1.6 0.8) (layer F.Fab) (width 0.1))
    (fp_line (start -1.6 -0.8) (end 1.6 -0.8) (layer F.Fab) (width 0.1))
    (fp_line (start 1 1.07) (end -1 1.07) (layer F.SilkS) (width 0.12))
    (fp_line (start -1 -1.07) (end 1 -1.07) (layer F.SilkS) (width 0.12))
    (fp_line (start -3.25 -1.11) (end 3.25 -1.11) (layer F.CrtYd) (width 0.05))
    (fp_line (start -3.25 -1.11) (end -3.25 1.1) (layer F.CrtYd) (width 0.05))
    (fp_line (start 3.25 1.1) (end 3.25 -1.11) (layer F.CrtYd) (width 0.05))
    (fp_line (start 3.25 1.1) (end -3.25 1.1) (layer F.CrtYd) (width 0.05))
    (pad 1 smd rect (at -2 0) (size 2 1.7) (layers F.Cu F.Paste F.Mask)
      (net 27 /AVRRST))
    (pad 2 smd rect (at 2 0) (size 2 1.7) (layers F.Cu F.Paste F.Mask)
      (net 27 /AVRRST))
    (model Resistors_SMD.3dshapes/R_1206.wrl
      (at (xyz 0 0 0))
      (scale (xyz 1 1 1))
      (rotate (xyz 0 0 0))
    )
  )

  (gr_line (start 99.06 149.86) (end 99.06 102.87) (angle 90) (layer Edge.Cuts) (width 0.15))
  (gr_line (start 149.86 149.86) (end 99.06 149.86) (angle 90) (layer Edge.Cuts) (width 0.15))
  (gr_line (start 149.86 102.87) (end 149.86 149.86) (angle 90) (layer Edge.Cuts) (width 0.15))
  (gr_line (start 99.06 102.87) (end 149.86 102.87) (angle 90) (layer Edge.Cuts) (width 0.15))

  (segment (start 117.71 120.972) (end 117.71 118.11) (width 0.5) (layer F.Cu) (net 1))
  (segment (start 117.71 118.11) (end 117.475 118.11) (width 0.5) (layer F.Cu) (net 1) (tstamp 599FF65C))
  (segment (start 119.888 139.68) (end 115.804 139.68) (width 1.2) (layer F.Cu) (net 1))
  (segment (start 114.268 138.144) (end 114.268 136.652) (width 1.2) (layer F.Cu) (net 1) (tstamp 599FF475))
  (segment (start 115.804 139.68) (end 114.268 138.144) (width 1.2) (layer F.Cu) (net 1) (tstamp 599FF474))
  (segment (start 115.824 118.11) (end 117.475 118.11) (width 1.2) (layer F.Cu) (net 1))
  (segment (start 117.475 118.11) (end 119.094 118.11) (width 1.2) (layer F.Cu) (net 1) (tstamp 599FF65F))
  (segment (start 119.094 118.11) (end 119.634 117.57) (width 1.2) (layer F.Cu) (net 1) (tstamp 599FF412))
  (segment (start 124.714 139.68) (end 126.4466 139.68) (width 1.2) (layer F.Cu) (net 1))
  (segment (start 132.334 143.9672) (end 132.334 141.7) (width 1.2) (layer F.Cu) (net 1) (tstamp 599FDA92))
  (segment (start 132.2832 144.018) (end 132.334 143.9672) (width 1.2) (layer F.Cu) (net 1) (tstamp 599FDA91))
  (segment (start 128.5748 144.018) (end 132.2832 144.018) (width 1.2) (layer F.Cu) (net 1) (tstamp 599FDA90))
  (segment (start 127.889 143.3322) (end 128.5748 144.018) (width 1.2) (layer F.Cu) (net 1) (tstamp 599FDA8F))
  (segment (start 127.889 141.1224) (end 127.889 143.3322) (width 1.2) (layer F.Cu) (net 1) (tstamp 599FDA8E))
  (segment (start 126.4466 139.68) (end 127.889 141.1224) (width 1.2) (layer F.Cu) (net 1) (tstamp 599FDA8D))
  (segment (start 119.888 139.68) (end 124.714 139.68) (width 1.2) (layer F.Cu) (net 1))
  (segment (start 132.334 119.602) (end 132.334 120.777) (width 0.8) (layer F.Cu) (net 1))
  (segment (start 131.826 121.285) (end 127.127 121.285) (width 0.8) (layer F.Cu) (net 1) (tstamp 599FDA67))
  (segment (start 132.334 120.777) (end 131.826 121.285) (width 0.8) (layer F.Cu) (net 1) (tstamp 599FDA66))
  (segment (start 127.127 121.285) (end 127 121.412) (width 0.8) (layer F.Cu) (net 1) (tstamp 599FDA68))
  (segment (start 116.91 129.472) (end 116.91 132.912) (width 0.5) (layer F.Cu) (net 1))
  (segment (start 116.91 132.912) (end 117.856 133.858) (width 0.5) (layer F.Cu) (net 1) (tstamp 599FD727))
  (segment (start 118.51 129.472) (end 118.51 133.204) (width 0.5) (layer F.Cu) (net 1))
  (segment (start 118.51 133.204) (end 117.856 133.858) (width 0.5) (layer F.Cu) (net 1) (tstamp 599FD6E5))
  (segment (start 118.598 139.68) (end 119.888 139.68) (width 0.5) (layer F.Cu) (net 1) (tstamp 599FD6EA))
  (segment (start 117.856 133.858) (end 117.856 136.144) (width 0.5) (layer F.Cu) (net 1) (tstamp 599FD6E6))
  (segment (start 117.856 136.144) (end 118.364 136.652) (width 0.5) (layer F.Cu) (net 1) (tstamp 599FD6E7))
  (segment (start 118.364 136.652) (end 118.364 139.446) (width 0.5) (layer F.Cu) (net 1) (tstamp 599FD6E8))
  (segment (start 118.364 139.446) (end 118.598 139.68) (width 0.5) (layer F.Cu) (net 1) (tstamp 599FD6E9))
  (segment (start 116.91 129.472) (end 116.91 125.152) (width 0.5) (layer F.Cu) (net 1))
  (segment (start 117.71 124.352) (end 117.71 120.972) (width 0.5) (layer F.Cu) (net 1) (tstamp 599F1C2A))
  (segment (start 116.91 125.152) (end 117.71 124.352) (width 0.5) (layer F.Cu) (net 1) (tstamp 599F1C29))
  (segment (start 135.026 127.268) (end 132.634 127.268) (width 1.2) (layer F.Cu) (net 1))
  (segment (start 132.634 127.268) (end 132.334 126.968) (width 1.2) (layer F.Cu) (net 1) (tstamp 599F1BBA))
  (segment (start 138.176 140.462) (end 138.176 144.526) (width 1.6) (layer F.Cu) (net 1))
  (segment (start 139.954 146.304) (end 146.304 146.304) (width 1.6) (layer F.Cu) (net 1) (tstamp 599F18FC))
  (segment (start 138.176 144.526) (end 139.954 146.304) (width 1.6) (layer F.Cu) (net 1) (tstamp 599F18FB))
  (segment (start 135.026 119.902) (end 138.176 119.902) (width 1.6) (layer F.Cu) (net 1))
  (segment (start 137.922 120.142) (end 138.176 120.142) (width 1.6) (layer F.Cu) (net 1) (tstamp 599F188A))
  (segment (start 137.936 120.142) (end 137.922 120.142) (width 1.6) (layer F.Cu) (net 1) (tstamp 599F1889))
  (segment (start 138.176 119.902) (end 137.936 120.142) (width 1.6) (layer F.Cu) (net 1) (tstamp 599F1888))
  (segment (start 135.026 127.268) (end 138.176 127.268) (width 1.6) (layer F.Cu) (net 1))
  (segment (start 138.176 127.268) (end 138.176 127.508) (width 1.6) (layer F.Cu) (net 1) (tstamp 599F1883))
  (segment (start 135.026 134.634) (end 138.176 134.634) (width 1.6) (layer F.Cu) (net 1))
  (segment (start 137.922 134.874) (end 138.176 134.874) (width 1.6) (layer F.Cu) (net 1) (tstamp 599F1880))
  (segment (start 137.936 134.874) (end 137.922 134.874) (width 1.6) (layer F.Cu) (net 1) (tstamp 599F187F))
  (segment (start 138.176 134.634) (end 137.936 134.874) (width 1.6) (layer F.Cu) (net 1) (tstamp 599F187E))
  (segment (start 138.176 138.176) (end 138.176 140.462) (width 1.6) (layer F.Cu) (net 1))
  (segment (start 138.176 140.462) (end 138.176 141.732) (width 1.6) (layer F.Cu) (net 1) (tstamp 599F18F9))
  (segment (start 138.176 134.874) (end 138.176 138.176) (width 1.6) (layer F.Cu) (net 1) (tstamp 599F1881))
  (segment (start 138.176 141.732) (end 137.908 142) (width 1.6) (layer F.Cu) (net 1) (tstamp 599F187A))
  (segment (start 137.908 142) (end 135.026 142) (width 1.6) (layer F.Cu) (net 1) (tstamp 599F187B))
  (segment (start 135.026 112.536) (end 137.174 112.536) (width 1.6) (layer F.Cu) (net 1))
  (segment (start 138.176 113.538) (end 138.176 120.142) (width 1.6) (layer F.Cu) (net 1) (tstamp 599F1873))
  (segment (start 137.174 112.536) (end 138.176 113.538) (width 1.6) (layer F.Cu) (net 1) (tstamp 599F1872))
  (segment (start 138.176 120.142) (end 138.176 127.508) (width 1.6) (layer F.Cu) (net 1) (tstamp 599F188B))
  (segment (start 138.176 127.508) (end 138.176 134.874) (width 1.6) (layer F.Cu) (net 1) (tstamp 599F1886))
  (segment (start 135.026 142) (end 132.634 142) (width 1.2) (layer F.Cu) (net 1))
  (segment (start 132.634 142) (end 132.334 141.7) (width 1.2) (layer F.Cu) (net 1) (tstamp 599F186D))
  (segment (start 135.026 134.634) (end 132.634 134.634) (width 1.2) (layer F.Cu) (net 1))
  (segment (start 132.634 134.634) (end 132.334 134.334) (width 1.2) (layer F.Cu) (net 1) (tstamp 599F186A))
  (segment (start 135.026 119.902) (end 132.634 119.902) (width 1.2) (layer F.Cu) (net 1))
  (segment (start 132.634 119.902) (end 132.334 119.602) (width 1.2) (layer F.Cu) (net 1) (tstamp 599F182F))
  (segment (start 135.026 112.536) (end 132.634 112.536) (width 1.2) (layer F.Cu) (net 1))
  (segment (start 132.634 112.536) (end 132.334 112.236) (width 1.2) (layer F.Cu) (net 1) (tstamp 599F1825))
  (segment (start 119.888 134.874) (end 119.888 137.18) (width 1.2) (layer F.Cu) (net 2))
  (segment (start 120.11 129.472) (end 120.11 134.652) (width 0.5) (layer F.Cu) (net 2))
  (segment (start 120.11 134.652) (end 119.888 134.874) (width 0.5) (layer F.Cu) (net 2) (tstamp 599FD6DE))
  (segment (start 124.714 137.18) (end 124.714 134.928) (width 1.2) (layer F.Cu) (net 3))
  (segment (start 124.714 134.928) (end 124.768 134.874) (width 1.2) (layer F.Cu) (net 3) (tstamp 599FD708))
  (segment (start 120.91 129.472) (end 120.91 129.8) (width 0.5) (layer F.Cu) (net 3))
  (segment (start 120.91 129.8) (end 124.768 133.658) (width 0.5) (layer F.Cu) (net 3) (tstamp 599FD6E1))
  (segment (start 124.768 133.658) (end 124.768 134.874) (width 0.5) (layer F.Cu) (net 3) (tstamp 599FD6E2))
  (segment (start 108.458 129.54) (end 108.458 133.858) (width 0.5) (layer F.Cu) (net 4))
  (segment (start 111.76 134.62) (end 113.76 132.62) (width 0.5) (layer F.Cu) (net 4) (tstamp 599FF621))
  (segment (start 109.22 134.62) (end 111.76 134.62) (width 0.5) (layer F.Cu) (net 4) (tstamp 599FF61E))
  (segment (start 108.458 133.858) (end 109.22 134.62) (width 0.5) (layer F.Cu) (net 4) (tstamp 599FF61D))
  (segment (start 113.76 132.62) (end 114.3 132.62) (width 0.5) (layer F.Cu) (net 4) (tstamp 599FF622))
  (segment (start 102.362 128.27) (end 103.124 128.27) (width 1.2) (layer F.Cu) (net 4))
  (segment (start 103.124 128.27) (end 104.394 129.54) (width 1.2) (layer F.Cu) (net 4) (tstamp 599FF452))
  (segment (start 104.394 129.54) (end 104.394 131.318) (width 1.2) (layer F.Cu) (net 4) (tstamp 599FF453))
  (segment (start 104.394 131.318) (end 104.68 131.604) (width 1.2) (layer F.Cu) (net 4) (tstamp 599FF454))
  (segment (start 104.68 131.604) (end 105.41 131.604) (width 1.2) (layer F.Cu) (net 4) (tstamp 599FF455))
  (segment (start 108.458 123.19) (end 108.458 114.3) (width 0.5) (layer F.Cu) (net 4))
  (segment (start 108.27 114.112) (end 107.458 114.112) (width 0.5) (layer F.Cu) (net 4) (tstamp 599FF361))
  (segment (start 108.458 114.3) (end 108.27 114.112) (width 0.5) (layer F.Cu) (net 4) (tstamp 599FF360))
  (segment (start 105.41 113.062) (end 106.902 113.062) (width 0.8) (layer F.Cu) (net 4))
  (segment (start 106.902 113.062) (end 107.458 113.618) (width 0.8) (layer F.Cu) (net 4) (tstamp 599FF356))
  (segment (start 107.458 113.618) (end 107.458 114.112) (width 0.8) (layer F.Cu) (net 4) (tstamp 599FF357))
  (segment (start 107.458 131.13) (end 105.884 131.13) (width 0.8) (layer F.Cu) (net 4))
  (segment (start 105.884 131.13) (end 105.41 131.604) (width 0.8) (layer F.Cu) (net 4) (tstamp 599FF2D8))
  (segment (start 105.41 119.92) (end 107.22 119.92) (width 0.8) (layer F.Cu) (net 4))
  (segment (start 107.458 120.158) (end 107.458 122.24) (width 0.8) (layer F.Cu) (net 4) (tstamp 599FF2D5))
  (segment (start 107.22 119.92) (end 107.458 120.158) (width 0.8) (layer F.Cu) (net 4) (tstamp 599FF2D4))
  (segment (start 107.458 122.24) (end 108.138 122.24) (width 0.5) (layer F.Cu) (net 4))
  (segment (start 108.458 130.13) (end 107.458 131.13) (width 0.5) (layer F.Cu) (net 4) (tstamp 599FF2B3))
  (segment (start 108.458 122.56) (end 108.458 123.19) (width 0.5) (layer F.Cu) (net 4) (tstamp 599FF2B2))
  (segment (start 108.458 123.19) (end 108.458 129.54) (width 0.5) (layer F.Cu) (net 4) (tstamp 599FF35E))
  (segment (start 108.458 129.54) (end 108.458 130.13) (width 0.5) (layer F.Cu) (net 4) (tstamp 599FF478))
  (segment (start 108.138 122.24) (end 108.458 122.56) (width 0.5) (layer F.Cu) (net 4) (tstamp 599FF2B1))
  (via (at 135.026 139.7) (size 0.6) (drill 0.4) (layers F.Cu B.Cu) (net 5))
  (segment (start 141.326 139.7) (end 141.224 139.7) (width 1.5) (layer F.Cu) (net 5) (tstamp 599F18ED))
  (via (at 141.224 139.7) (size 0.6) (drill 0.4) (layers F.Cu B.Cu) (net 5))
  (segment (start 141.224 139.7) (end 135.026 139.7) (width 1.5) (layer B.Cu) (net 5) (tstamp 599F18EA))
  (segment (start 141.326 139.7) (end 146.304 139.7) (width 1.6) (layer F.Cu) (net 5))
  (via (at 135.026 132.334) (size 0.6) (drill 0.4) (layers F.Cu B.Cu) (net 6))
  (segment (start 141.326 132.334) (end 141.478 132.334) (width 1.5) (layer F.Cu) (net 6) (tstamp 599F18E6))
  (via (at 141.478 132.334) (size 0.6) (drill 0.4) (layers F.Cu B.Cu) (net 6))
  (segment (start 141.478 132.334) (end 135.026 132.334) (width 1.5) (layer B.Cu) (net 6) (tstamp 599F18E3))
  (segment (start 141.326 132.334) (end 146.304 132.334) (width 1.6) (layer F.Cu) (net 6))
  (via (at 135.026 124.968) (size 0.6) (drill 0.4) (layers F.Cu B.Cu) (net 7))
  (segment (start 141.326 124.968) (end 141.224 124.968) (width 1.5) (layer F.Cu) (net 7) (tstamp 599F18DF))
  (via (at 141.224 124.968) (size 0.6) (drill 0.4) (layers F.Cu B.Cu) (net 7))
  (segment (start 141.224 124.968) (end 135.026 124.968) (width 1.5) (layer B.Cu) (net 7) (tstamp 599F18DC))
  (segment (start 141.326 124.968) (end 146.304 124.968) (width 1.6) (layer F.Cu) (net 7))
  (segment (start 141.326 117.602) (end 146.304 117.602) (width 1.6) (layer F.Cu) (net 8))
  (via (at 135.026 117.602) (size 0.6) (drill 0.4) (layers F.Cu B.Cu) (net 8))
  (segment (start 141.326 117.602) (end 141.478 117.602) (width 1.6) (layer F.Cu) (net 8) (tstamp 599F18C6))
  (via (at 141.478 117.602) (size 0.6) (drill 0.4) (layers F.Cu B.Cu) (net 8))
  (segment (start 141.478 117.602) (end 135.026 117.602) (width 1.6) (layer B.Cu) (net 8) (tstamp 599F18C3))
  (segment (start 135.026 110.236) (end 141.326 110.236) (width 1.6) (layer F.Cu) (net 9))
  (segment (start 141.326 110.236) (end 146.304 110.236) (width 1.6) (layer F.Cu) (net 9))
  (segment (start 115.824 113.03) (end 115.4176 113.03) (width 1.2) (layer F.Cu) (net 10))
  (segment (start 115.4176 113.03) (end 113.8616 114.586) (width 1.2) (layer F.Cu) (net 10) (tstamp 599FF968))
  (segment (start 113.8616 114.586) (end 111.6584 114.586) (width 1.2) (layer F.Cu) (net 10) (tstamp 599FF969))
  (segment (start 113.665 104.14) (end 118.745 104.14) (width 1.2) (layer F.Cu) (net 10))
  (segment (start 119.634 105.029) (end 119.634 113.57) (width 1.2) (layer F.Cu) (net 10) (tstamp 599FF761))
  (segment (start 118.745 104.14) (end 119.634 105.029) (width 1.2) (layer F.Cu) (net 10) (tstamp 599FF760))
  (segment (start 100.33 107.315) (end 100.33 104.14) (width 1.2) (layer F.Cu) (net 10))
  (segment (start 100.33 104.14) (end 102.235 104.14) (width 1.2) (layer F.Cu) (net 10) (tstamp 599FF741))
  (segment (start 102.362 125.73) (end 101.6 125.73) (width 1.2) (layer F.Cu) (net 10))
  (segment (start 101.6 125.73) (end 100.33 124.46) (width 1.2) (layer F.Cu) (net 10) (tstamp 599FF6A3))
  (segment (start 102.235 104.14) (end 113.665 104.14) (width 1.2) (layer F.Cu) (net 10) (tstamp 599FF744))
  (segment (start 100.33 124.46) (end 100.33 107.315) (width 1.2) (layer F.Cu) (net 10) (tstamp 599FF6A4))
  (segment (start 102.362 125.73) (end 103.632 125.73) (width 1.2) (layer F.Cu) (net 10))
  (segment (start 104.394 126.492) (end 106.458 126.492) (width 1.2) (layer F.Cu) (net 10) (tstamp 599FF45D))
  (segment (start 103.632 125.73) (end 104.394 126.492) (width 1.2) (layer F.Cu) (net 10) (tstamp 599FF45C))
  (segment (start 106.458 129.032) (end 106.458 126.492) (width 1.2) (layer F.Cu) (net 10))
  (segment (start 115.824 113.03) (end 119.094 113.03) (width 1.2) (layer F.Cu) (net 10))
  (segment (start 119.094 113.03) (end 119.634 113.57) (width 1.2) (layer F.Cu) (net 10) (tstamp 599FF40F))
  (segment (start 120.11 120.972) (end 120.11 119.92) (width 0.5) (layer F.Cu) (net 10))
  (segment (start 122.174 118.872) (end 122.174 117.57) (width 0.5) (layer F.Cu) (net 10) (tstamp 599FDBDB))
  (segment (start 121.92 119.126) (end 122.174 118.872) (width 0.5) (layer F.Cu) (net 10) (tstamp 599FDBDA))
  (segment (start 120.904 119.126) (end 121.92 119.126) (width 0.5) (layer F.Cu) (net 10) (tstamp 599FDBD9))
  (segment (start 120.11 119.92) (end 120.904 119.126) (width 0.5) (layer F.Cu) (net 10) (tstamp 599FDBD8))
  (segment (start 119.634 113.57) (end 119.634 115.57) (width 1.2) (layer F.Cu) (net 10))
  (segment (start 119.634 115.57) (end 119.634 115.316) (width 1.2) (layer F.Cu) (net 10) (tstamp 599FDBBF))
  (segment (start 119.634 115.316) (end 119.634 115.57) (width 1.2) (layer F.Cu) (net 10) (tstamp 599FDBC1))
  (segment (start 122.174 116.078) (end 122.174 117.57) (width 1.2) (layer F.Cu) (net 10) (tstamp 599FDBBC))
  (segment (start 119.634 115.57) (end 121.666 115.57) (width 1.2) (layer F.Cu) (net 10) (tstamp 599FDBC2))
  (segment (start 121.666 115.57) (end 122.174 116.078) (width 1.2) (layer F.Cu) (net 10) (tstamp 599FDBBB))
  (segment (start 117.71 129.472) (end 117.71 126.892) (width 0.5) (layer F.Cu) (net 10))
  (segment (start 117.71 126.892) (end 119.31 125.292) (width 0.5) (layer F.Cu) (net 10) (tstamp 599F1C22))
  (segment (start 120.11 120.972) (end 120.11 124.492) (width 0.5) (layer F.Cu) (net 10))
  (segment (start 119.31 125.292) (end 119.31 129.472) (width 0.5) (layer F.Cu) (net 10) (tstamp 599F1C1F))
  (segment (start 120.11 124.492) (end 119.31 125.292) (width 0.5) (layer F.Cu) (net 10) (tstamp 599F1C1E))
  (segment (start 102.362 130.81) (end 102.362 135.128) (width 1.2) (layer F.Cu) (net 11))
  (segment (start 102.838 135.604) (end 105.41 135.604) (width 1.2) (layer F.Cu) (net 11) (tstamp 599FF44F))
  (segment (start 102.362 135.128) (end 102.838 135.604) (width 1.2) (layer F.Cu) (net 11) (tstamp 599FF44E))
  (segment (start 105.41 135.604) (end 106.966 135.604) (width 0.8) (layer F.Cu) (net 11))
  (segment (start 107.458 135.112) (end 107.458 133.03) (width 0.8) (layer F.Cu) (net 11) (tstamp 599FF2DC))
  (segment (start 106.966 135.604) (end 107.458 135.112) (width 0.8) (layer F.Cu) (net 11) (tstamp 599FF2DB))
  (segment (start 105.41 123.92) (end 103.092 123.92) (width 0.8) (layer F.Cu) (net 12))
  (segment (start 103.092 123.92) (end 102.362 123.19) (width 0.8) (layer F.Cu) (net 12) (tstamp 599FF44A))
  (segment (start 107.458 124.14) (end 105.63 124.14) (width 0.8) (layer F.Cu) (net 12))
  (segment (start 105.63 124.14) (end 105.41 123.92) (width 0.8) (layer F.Cu) (net 12) (tstamp 599FF2D1))
  (segment (start 105.41 117.062) (end 103.664 117.062) (width 0.8) (layer F.Cu) (net 13))
  (segment (start 102.362 118.364) (end 102.362 120.65) (width 0.8) (layer F.Cu) (net 13) (tstamp 599FF446))
  (segment (start 103.664 117.062) (end 102.362 118.364) (width 0.8) (layer F.Cu) (net 13) (tstamp 599FF445))
  (segment (start 105.41 117.062) (end 106.902 117.062) (width 0.8) (layer F.Cu) (net 13))
  (segment (start 107.458 116.506) (end 107.458 116.012) (width 0.8) (layer F.Cu) (net 13) (tstamp 599FF35B))
  (segment (start 106.902 117.062) (end 107.458 116.506) (width 0.8) (layer F.Cu) (net 13) (tstamp 599FF35A))
  (segment (start 109.458 123.19) (end 110.236 123.19) (width 0.8) (layer F.Cu) (net 14))
  (segment (start 110.458 123.412) (end 110.458 126.492) (width 0.8) (layer F.Cu) (net 14) (tstamp 599FF2CA))
  (segment (start 110.236 123.19) (end 110.458 123.412) (width 0.8) (layer F.Cu) (net 14) (tstamp 599FF2C9))
  (segment (start 113.86 126.422) (end 110.528 126.422) (width 0.5) (layer F.Cu) (net 14))
  (segment (start 110.528 126.422) (end 110.458 126.492) (width 0.5) (layer F.Cu) (net 14) (tstamp 599FF2B6))
  (segment (start 109.458 132.08) (end 109.982 132.08) (width 0.8) (layer F.Cu) (net 15))
  (segment (start 110.458 131.604) (end 110.458 129.032) (width 0.8) (layer F.Cu) (net 15) (tstamp 599FF2CE))
  (segment (start 109.982 132.08) (end 110.458 131.604) (width 0.8) (layer F.Cu) (net 15) (tstamp 599FF2CD))
  (segment (start 113.86 127.222) (end 112.3 127.222) (width 0.5) (layer F.Cu) (net 15))
  (segment (start 111.76 129.032) (end 110.458 129.032) (width 0.5) (layer F.Cu) (net 15) (tstamp 599FF2BE))
  (segment (start 112.268 128.524) (end 111.76 129.032) (width 0.5) (layer F.Cu) (net 15) (tstamp 599FF2BD))
  (segment (start 112.268 127.254) (end 112.268 128.524) (width 0.5) (layer F.Cu) (net 15) (tstamp 599FF2BC))
  (segment (start 112.3 127.222) (end 112.268 127.254) (width 0.5) (layer F.Cu) (net 15) (tstamp 599FF2BB))
  (segment (start 130.048 141.7) (end 130.048 139.827) (width 1.2) (layer F.Cu) (net 16))
  (segment (start 132.334 139.1412) (end 132.334 137.7) (width 1.2) (layer F.Cu) (net 16) (tstamp 599FDA87))
  (segment (start 131.7752 139.7) (end 132.334 139.1412) (width 1.2) (layer F.Cu) (net 16) (tstamp 599FDA86))
  (segment (start 130.175 139.7) (end 131.7752 139.7) (width 1.2) (layer F.Cu) (net 16) (tstamp 599FDA85))
  (segment (start 130.048 139.827) (end 130.175 139.7) (width 1.2) (layer F.Cu) (net 16) (tstamp 599FDA84))
  (segment (start 135.026 137.4) (end 132.634 137.4) (width 1.2) (layer F.Cu) (net 16))
  (segment (start 132.634 137.4) (end 132.334 137.7) (width 1.2) (layer F.Cu) (net 16) (tstamp 599F1864))
  (segment (start 130.048 134.334) (end 130.048 132.3594) (width 1.2) (layer F.Cu) (net 17))
  (segment (start 132.334 131.7752) (end 132.334 130.334) (width 1.2) (layer F.Cu) (net 17) (tstamp 599FDA81))
  (segment (start 131.8006 132.3086) (end 132.334 131.7752) (width 1.2) (layer F.Cu) (net 17) (tstamp 599FDA80))
  (segment (start 130.0988 132.3086) (end 131.8006 132.3086) (width 1.2) (layer F.Cu) (net 17) (tstamp 599FDA7F))
  (segment (start 130.048 132.3594) (end 130.0988 132.3086) (width 1.2) (layer F.Cu) (net 17) (tstamp 599FDA7E))
  (segment (start 135.026 130.034) (end 132.634 130.034) (width 1.2) (layer F.Cu) (net 17))
  (segment (start 132.634 130.034) (end 132.334 130.334) (width 1.2) (layer F.Cu) (net 17) (tstamp 599F185E))
  (segment (start 130.048 122.968) (end 132.334 122.968) (width 1.2) (layer F.Cu) (net 18))
  (segment (start 135.026 122.668) (end 132.634 122.668) (width 1.2) (layer F.Cu) (net 18))
  (segment (start 132.634 122.668) (end 132.334 122.968) (width 1.2) (layer F.Cu) (net 18) (tstamp 599F1832))
  (segment (start 130.048 115.602) (end 132.334 115.602) (width 1.2) (layer F.Cu) (net 19))
  (segment (start 135.026 115.302) (end 132.634 115.302) (width 1.2) (layer F.Cu) (net 19))
  (segment (start 132.634 115.302) (end 132.334 115.602) (width 1.2) (layer F.Cu) (net 19) (tstamp 599F1822))
  (segment (start 132.302 115.57) (end 132.334 115.602) (width 1.2) (layer F.Cu) (net 19) (tstamp 599F181F))
  (segment (start 130.048 108.236) (end 132.334 108.236) (width 1.2) (layer F.Cu) (net 20))
  (segment (start 135.026 107.936) (end 132.634 107.936) (width 1.2) (layer F.Cu) (net 20))
  (segment (start 132.634 107.936) (end 132.334 108.236) (width 1.2) (layer F.Cu) (net 20) (tstamp 599F1828))
  (segment (start 115.824 115.57) (end 115.2398 115.57) (width 1.2) (layer F.Cu) (net 21))
  (segment (start 115.2398 115.57) (end 112.2238 118.586) (width 1.2) (layer F.Cu) (net 21) (tstamp 599FF96C))
  (segment (start 112.2238 118.586) (end 111.6584 118.586) (width 1.2) (layer F.Cu) (net 21) (tstamp 599FF96D))
  (segment (start 115.31 120.972) (end 114.0444 120.972) (width 0.5) (layer F.Cu) (net 21))
  (segment (start 114.0444 120.972) (end 111.6584 118.586) (width 0.5) (layer F.Cu) (net 21) (tstamp 599FF965))
  (segment (start 115.31 120.972) (end 115.31 120.644) (width 0.5) (layer F.Cu) (net 21))
  (segment (start 122.36 124.822) (end 123.806 124.822) (width 0.5) (layer F.Cu) (net 22))
  (segment (start 128.302 137.7) (end 130.048 137.7) (width 0.5) (layer F.Cu) (net 22) (tstamp 599FDA5D))
  (segment (start 128.016 137.414) (end 128.302 137.7) (width 0.5) (layer F.Cu) (net 22) (tstamp 599FDA5C))
  (segment (start 128.016 129.794) (end 128.016 137.414) (width 0.5) (layer F.Cu) (net 22) (tstamp 599FDA5A))
  (segment (start 124.206 125.984) (end 128.016 129.794) (width 0.5) (layer F.Cu) (net 22) (tstamp 599FDA59))
  (segment (start 124.206 125.222) (end 124.206 125.984) (width 0.5) (layer F.Cu) (net 22) (tstamp 599FDA58))
  (segment (start 123.806 124.822) (end 124.206 125.222) (width 0.5) (layer F.Cu) (net 22) (tstamp 599FDA57))
  (segment (start 122.36 124.022) (end 124.784 124.022) (width 0.5) (layer F.Cu) (net 23))
  (segment (start 124.968 125.222) (end 130.048 130.302) (width 0.5) (layer F.Cu) (net 23) (tstamp 599FDA4F))
  (segment (start 124.968 124.206) (end 124.968 125.222) (width 0.5) (layer F.Cu) (net 23) (tstamp 599FDA4E))
  (segment (start 124.784 124.022) (end 124.968 124.206) (width 0.5) (layer F.Cu) (net 23) (tstamp 599FDA4D))
  (segment (start 130.048 130.302) (end 130.048 130.334) (width 0.5) (layer F.Cu) (net 23) (tstamp 599FDA50))
  (segment (start 120.91 120.972) (end 121.852 120.972) (width 0.5) (layer F.Cu) (net 24))
  (segment (start 121.852 120.972) (end 126.492 116.332) (width 0.5) (layer F.Cu) (net 24) (tstamp 599FDBD0))
  (segment (start 126.492 116.332) (end 127 116.332) (width 0.5) (layer F.Cu) (net 24) (tstamp 599FDBD1))
  (segment (start 127 116.332) (end 127.3556 116.332) (width 0.8) (layer F.Cu) (net 24))
  (segment (start 127.3556 116.332) (end 128.524 115.1636) (width 0.8) (layer F.Cu) (net 24) (tstamp 599FDA6E))
  (segment (start 128.524 115.1636) (end 128.524 114.3) (width 0.8) (layer F.Cu) (net 24) (tstamp 599FDA6F))
  (segment (start 128.524 114.3) (end 130.048 112.776) (width 0.8) (layer F.Cu) (net 24) (tstamp 599FDA70))
  (segment (start 130.048 112.776) (end 130.048 112.236) (width 0.8) (layer F.Cu) (net 24) (tstamp 599FDA71))
  (segment (start 122.36 122.422) (end 122.942 122.422) (width 0.5) (layer F.Cu) (net 25))
  (segment (start 122.942 122.422) (end 126.492 118.872) (width 0.5) (layer F.Cu) (net 25) (tstamp 599FDBD4))
  (segment (start 126.492 118.872) (end 127 118.872) (width 0.5) (layer F.Cu) (net 25) (tstamp 599FDBD5))
  (segment (start 127 118.872) (end 129.318 118.872) (width 0.8) (layer F.Cu) (net 25))
  (segment (start 129.318 118.872) (end 130.048 119.602) (width 0.8) (layer F.Cu) (net 25) (tstamp 599FDA6B))
  (segment (start 130.048 126.968) (end 130.016 126.968) (width 1.2) (layer F.Cu) (net 26))
  (segment (start 130.016 126.968) (end 127 123.952) (width 1.2) (layer F.Cu) (net 26) (tstamp 599FDA7B))
  (segment (start 122.36 123.222) (end 126.27 123.222) (width 0.5) (layer F.Cu) (net 26))
  (segment (start 126.27 123.222) (end 127 123.952) (width 0.5) (layer F.Cu) (net 26) (tstamp 599FDA4A))
  (via (at 117.634 110.363) (size 0.6) (drill 0.4) (layers F.Cu B.Cu) (net 27))
  (segment (start 109.458 113.046) (end 109.8296 112.6744) (width 0.8) (layer F.Cu) (net 27) (tstamp 599FF953))
  (segment (start 109.8296 112.6744) (end 113.5126 112.6744) (width 0.8) (layer F.Cu) (net 27) (tstamp 599FF954))
  (segment (start 113.5126 112.6744) (end 115.824 110.363) (width 0.8) (layer F.Cu) (net 27) (tstamp 599FF955))
  (segment (start 115.824 110.363) (end 117.634 110.363) (width 0.8) (layer F.Cu) (net 27) (tstamp 599FF956))
  (segment (start 109.458 115.062) (end 109.458 113.046) (width 0.8) (layer F.Cu) (net 27))
  (segment (start 121.6406 110.363) (end 121.634 110.363) (width 1.2) (layer F.Cu) (net 27) (tstamp 599FF978))
  (via (at 121.6406 110.363) (size 0.6) (drill 0.4) (layers F.Cu B.Cu) (net 27))
  (segment (start 117.634 110.363) (end 121.6406 110.363) (width 1.2) (layer B.Cu) (net 27) (tstamp 599FF975))
  (segment (start 122.174 113.57) (end 122.174 110.903) (width 1.2) (layer F.Cu) (net 27))
  (segment (start 122.174 110.903) (end 121.634 110.363) (width 1.2) (layer F.Cu) (net 27) (tstamp 599FF971))
  (segment (start 113.86 125.622) (end 112.541 125.622) (width 0.5) (layer F.Cu) (net 27))
  (segment (start 111.6838 122.0978) (end 111.6838 124.206) (width 0.8) (layer F.Cu) (net 27) (tstamp 599FF95E))
  (segment (start 109.7788 120.1928) (end 111.6838 122.0978) (width 0.8) (layer F.Cu) (net 27) (tstamp 599FF95D))
  (segment (start 109.7788 120.1928) (end 109.7788 115.3668) (width 0.8) (layer F.Cu) (net 27) (tstamp 599FF95C))
  (segment (start 111.6838 124.7648) (end 111.6838 124.206) (width 0.5) (layer F.Cu) (net 27) (tstamp 599FF962))
  (segment (start 112.541 125.622) (end 111.6838 124.7648) (width 0.5) (layer F.Cu) (net 27) (tstamp 599FF961))
  (segment (start 109.458 115.062) (end 109.474 115.062) (width 0.8) (layer F.Cu) (net 27))
  (segment (start 109.474 115.062) (end 109.7788 115.3668) (width 0.8) (layer F.Cu) (net 27) (tstamp 599FF95B))
  (segment (start 122.174 113.57) (end 126.778 113.57) (width 1.2) (layer F.Cu) (net 27))
  (segment (start 126.778 113.57) (end 127 113.792) (width 1.2) (layer F.Cu) (net 27) (tstamp 599FF41C))
  (segment (start 122.396 113.792) (end 122.174 113.57) (width 1.2) (layer F.Cu) (net 27) (tstamp 599FDBB6))

)
