EESchema Schematic File Version 2
LIBS:power
LIBS:device
LIBS:transistors
LIBS:conn
LIBS:linear
LIBS:regul
LIBS:74xx
LIBS:cmos4000
LIBS:adc-dac
LIBS:memory
LIBS:xilinx
LIBS:microcontrollers
LIBS:dsp
LIBS:microchip
LIBS:analog_switches
LIBS:motorola
LIBS:texas
LIBS:intel
LIBS:audio
LIBS:interface
LIBS:digital-audio
LIBS:philips
LIBS:display
LIBS:cypress
LIBS:siliconi
LIBS:opto
LIBS:atmel
LIBS:contrib
LIBS:valves
LIBS:maxim
LIBS:pwm-cache
EELAYER 25 0
EELAYER END
$Descr A4 11693 8268
encoding utf-8
Sheet 1 1
Title ""
Date ""
Rev ""
Comp ""
Comment1 ""
Comment2 ""
Comment3 ""
Comment4 ""
$EndDescr
$Comp
L ATMEGA8-16AU U1
U 1 1 599EE2A8
P 4350 3550
F 0 "U1" H 3600 4750 50  0000 L BNN
F 1 "ATMEGA8-16AU" H 4850 2000 50  0000 L BNN
F 2 "Housings_QFP:TQFP-32_7x7mm_Pitch0.8mm" H 4350 3550 50  0001 C CIN
F 3 "" H 4350 3550 50  0001 C CNN
	1    4350 3550
	1    0    0    -1  
$EndComp
$Comp
L C C3
U 1 1 599EE30E
P 3450 3750
F 0 "C3" H 3475 3850 50  0000 L CNN
F 1 "22pF" H 3250 3650 50  0000 L CNN
F 2 "Capacitors_SMD:C_0805_HandSoldering" H 3488 3600 50  0001 C CNN
F 3 "" H 3450 3750 50  0001 C CNN
	1    3450 3750
	1    0    0    -1  
$EndComp
$Comp
L Crystal Y1
U 1 1 599EE3D1
P 3150 3600
F 0 "Y1" H 3150 3750 50  0000 C CNN
F 1 "16MHz" H 3150 3450 50  0000 C CNN
F 2 "Crystals:Crystal_HC49-U_Vertical" H 3150 3600 50  0001 C CNN
F 3 "" H 3150 3600 50  0001 C CNN
	1    3150 3600
	1    0    0    -1  
$EndComp
$Comp
L C C2
U 1 1 599EE424
P 2850 3750
F 0 "C2" H 2875 3850 50  0000 L CNN
F 1 "22pF" H 2875 3650 50  0000 L CNN
F 2 "Capacitors_SMD:C_0805_HandSoldering" H 2888 3600 50  0001 C CNN
F 3 "" H 2850 3750 50  0001 C CNN
	1    2850 3750
	1    0    0    -1  
$EndComp
$Comp
L GND #PWR01
U 1 1 599EE47A
P 3450 4050
F 0 "#PWR01" H 3450 3800 50  0001 C CNN
F 1 "GND" H 3450 3900 50  0000 C CNN
F 2 "" H 3450 4050 50  0001 C CNN
F 3 "" H 3450 4050 50  0001 C CNN
	1    3450 4050
	1    0    0    -1  
$EndComp
$Comp
L GND #PWR02
U 1 1 599EE4F5
P 3450 3000
F 0 "#PWR02" H 3450 2750 50  0001 C CNN
F 1 "GND" H 3450 2850 50  0000 C CNN
F 2 "" H 3450 3000 50  0001 C CNN
F 3 "" H 3450 3000 50  0001 C CNN
	1    3450 3000
	1    0    0    -1  
$EndComp
$Comp
L GND #PWR03
U 1 1 599EE54C
P 4350 5300
F 0 "#PWR03" H 4350 5050 50  0001 C CNN
F 1 "GND" H 4350 5150 50  0000 C CNN
F 2 "" H 4350 5300 50  0001 C CNN
F 3 "" H 4350 5300 50  0001 C CNN
	1    4350 5300
	1    0    0    -1  
$EndComp
$Comp
L C C1
U 1 1 599EE5D5
P 1900 1050
F 0 "C1" H 1925 1150 50  0000 L CNN
F 1 "100nF" H 1925 950 50  0000 L CNN
F 2 "Capacitors_SMD:C_1206_HandSoldering" H 1938 900 50  0001 C CNN
F 3 "" H 1900 1050 50  0001 C CNN
	1    1900 1050
	1    0    0    -1  
$EndComp
$Comp
L PWR_FLAG #FLG04
U 1 1 599EE81B
P 1900 750
F 0 "#FLG04" H 1900 825 50  0001 C CNN
F 1 "PWR_FLAG" H 1900 900 50  0000 C CNN
F 2 "" H 1900 750 50  0001 C CNN
F 3 "" H 1900 750 50  0001 C CNN
	1    1900 750 
	1    0    0    -1  
$EndComp
$Comp
L PWR_FLAG #FLG05
U 1 1 599EE868
P 1450 750
F 0 "#FLG05" H 1450 825 50  0001 C CNN
F 1 "PWR_FLAG" H 1450 900 50  0000 C CNN
F 2 "" H 1450 750 50  0001 C CNN
F 3 "" H 1450 750 50  0001 C CNN
	1    1450 750 
	1    0    0    -1  
$EndComp
$Comp
L GND #PWR06
U 1 1 599EE886
P 1900 1400
F 0 "#PWR06" H 1900 1150 50  0001 C CNN
F 1 "GND" H 1900 1250 50  0000 C CNN
F 2 "" H 1900 1400 50  0001 C CNN
F 3 "" H 1900 1400 50  0001 C CNN
	1    1900 1400
	1    0    0    -1  
$EndComp
$Comp
L GND #PWR07
U 1 1 599EE8A4
P 1450 1400
F 0 "#PWR07" H 1450 1150 50  0001 C CNN
F 1 "GND" H 1450 1250 50  0000 C CNN
F 2 "" H 1450 1400 50  0001 C CNN
F 3 "" H 1450 1400 50  0001 C CNN
	1    1450 1400
	1    0    0    -1  
$EndComp
$Comp
L +5V #PWR08
U 1 1 599EE945
P 4350 2100
F 0 "#PWR08" H 4350 1950 50  0001 C CNN
F 1 "+5V" H 4350 2240 50  0000 C CNN
F 2 "" H 4350 2100 50  0001 C CNN
F 3 "" H 4350 2100 50  0001 C CNN
	1    4350 2100
	1    0    0    -1  
$EndComp
$Comp
L R R1
U 1 1 599EE9C6
P 3400 2400
F 0 "R1" V 3480 2400 50  0000 C CNN
F 1 "10k" V 3400 2400 50  0000 C CNN
F 2 "Resistors_SMD:R_1206_HandSoldering" V 3330 2400 50  0001 C CNN
F 3 "" H 3400 2400 50  0001 C CNN
	1    3400 2400
	1    0    0    -1  
$EndComp
NoConn ~ 3450 2850
NoConn ~ 5350 4850
NoConn ~ 5350 4750
NoConn ~ 5350 4650
NoConn ~ 5350 4550
NoConn ~ 5350 4450
NoConn ~ 5350 4350
NoConn ~ 5350 3250
NoConn ~ 5350 3450
NoConn ~ 5350 3550
NoConn ~ 5350 3650
NoConn ~ 5350 3750
NoConn ~ 5350 3850
NoConn ~ 5350 3950
$Comp
L Q_NMOS_GDS Q5
U 1 1 599EED83
P 7550 3200
F 0 "Q5" H 7750 3250 50  0000 L CNN
F 1 "FL024Z" H 7750 3150 50  0000 L CNN
F 2 "TO_SOT_Packages_SMD:SOT-223-3Lead_TabPin2" H 7750 3300 50  0001 C CNN
F 3 "" H 7550 3200 50  0001 C CNN
	1    7550 3200
	1    0    0    -1  
$EndComp
$Comp
L Q_NMOS_GDS Q6
U 1 1 599EEE3C
P 7550 3750
F 0 "Q6" H 7750 3800 50  0000 L CNN
F 1 "FL024Z" H 7750 3700 50  0000 L CNN
F 2 "TO_SOT_Packages_SMD:SOT-223-3Lead_TabPin2" H 7750 3850 50  0001 C CNN
F 3 "" H 7550 3750 50  0001 C CNN
	1    7550 3750
	1    0    0    -1  
$EndComp
$Comp
L Q_NMOS_GDS Q7
U 1 1 599EEEAF
P 7550 4300
F 0 "Q7" H 7750 4350 50  0000 L CNN
F 1 "FL024Z" H 7750 4250 50  0000 L CNN
F 2 "TO_SOT_Packages_SMD:SOT-223-3Lead_TabPin2" H 7750 4400 50  0001 C CNN
F 3 "" H 7550 4300 50  0001 C CNN
	1    7550 4300
	1    0    0    -1  
$EndComp
$Comp
L Q_NMOS_GDS Q8
U 1 1 599EEF2C
P 7550 4850
F 0 "Q8" H 7750 4900 50  0000 L CNN
F 1 "FL024Z" H 7750 4800 50  0000 L CNN
F 2 "TO_SOT_Packages_SMD:SOT-223-3Lead_TabPin2" H 7750 4950 50  0001 C CNN
F 3 "" H 7550 4850 50  0001 C CNN
	1    7550 4850
	1    0    0    -1  
$EndComp
$Comp
L Q_NMOS_GDS Q4
U 1 1 599EEFD9
P 7550 2650
F 0 "Q4" H 7750 2700 50  0000 L CNN
F 1 "FL024Z" H 7750 2600 50  0000 L CNN
F 2 "TO_SOT_Packages_SMD:SOT-223-3Lead_TabPin2" H 7750 2750 50  0001 C CNN
F 3 "" H 7550 2650 50  0001 C CNN
	1    7550 2650
	1    0    0    -1  
$EndComp
$Comp
L R R12
U 1 1 599EF13D
P 7150 2800
F 0 "R12" V 7230 2800 50  0000 C CNN
F 1 "10k" V 7150 2800 50  0000 C CNN
F 2 "Resistors_SMD:R_1206_HandSoldering" V 7080 2800 50  0001 C CNN
F 3 "" H 7150 2800 50  0001 C CNN
	1    7150 2800
	1    0    0    -1  
$EndComp
$Comp
L R R13
U 1 1 599EF1A4
P 7150 3350
F 0 "R13" V 7230 3350 50  0000 C CNN
F 1 "10k" V 7150 3350 50  0000 C CNN
F 2 "Resistors_SMD:R_1206_HandSoldering" V 7080 3350 50  0001 C CNN
F 3 "" H 7150 3350 50  0001 C CNN
	1    7150 3350
	1    0    0    -1  
$EndComp
$Comp
L R R14
U 1 1 599EF1F7
P 7150 3900
F 0 "R14" V 7230 3900 50  0000 C CNN
F 1 "10k" V 7150 3900 50  0000 C CNN
F 2 "Resistors_SMD:R_1206_HandSoldering" V 7080 3900 50  0001 C CNN
F 3 "" H 7150 3900 50  0001 C CNN
	1    7150 3900
	1    0    0    -1  
$EndComp
$Comp
L R R15
U 1 1 599EF240
P 7150 4450
F 0 "R15" V 7230 4450 50  0000 C CNN
F 1 "10k" V 7150 4450 50  0000 C CNN
F 2 "Resistors_SMD:R_1206_HandSoldering" V 7080 4450 50  0001 C CNN
F 3 "" H 7150 4450 50  0001 C CNN
	1    7150 4450
	1    0    0    -1  
$EndComp
$Comp
L R R16
U 1 1 599EF291
P 7150 5000
F 0 "R16" V 7230 5000 50  0000 C CNN
F 1 "10k" V 7150 5000 50  0000 C CNN
F 2 "Resistors_SMD:R_1206_HandSoldering" V 7080 5000 50  0001 C CNN
F 3 "" H 7150 5000 50  0001 C CNN
	1    7150 5000
	1    0    0    -1  
$EndComp
$Comp
L R R7
U 1 1 599EF6AB
P 6850 2650
F 0 "R7" V 6930 2650 50  0000 C CNN
F 1 "220" V 6850 2650 50  0000 C CNN
F 2 "Resistors_SMD:R_1206_HandSoldering" V 6780 2650 50  0001 C CNN
F 3 "" H 6850 2650 50  0001 C CNN
	1    6850 2650
	0    1    1    0   
$EndComp
$Comp
L R R8
U 1 1 599EF724
P 6850 3200
F 0 "R8" V 6930 3200 50  0000 C CNN
F 1 "220" V 6850 3200 50  0000 C CNN
F 2 "Resistors_SMD:R_1206_HandSoldering" V 6780 3200 50  0001 C CNN
F 3 "" H 6850 3200 50  0001 C CNN
	1    6850 3200
	0    1    1    0   
$EndComp
$Comp
L R R9
U 1 1 599EF767
P 6850 3750
F 0 "R9" V 6930 3750 50  0000 C CNN
F 1 "220" V 6850 3750 50  0000 C CNN
F 2 "Resistors_SMD:R_1206_HandSoldering" V 6780 3750 50  0001 C CNN
F 3 "" H 6850 3750 50  0001 C CNN
	1    6850 3750
	0    1    1    0   
$EndComp
$Comp
L R R10
U 1 1 599EF7C0
P 6850 4300
F 0 "R10" V 6930 4300 50  0000 C CNN
F 1 "220" V 6850 4300 50  0000 C CNN
F 2 "Resistors_SMD:R_1206_HandSoldering" V 6780 4300 50  0001 C CNN
F 3 "" H 6850 4300 50  0001 C CNN
	1    6850 4300
	0    1    1    0   
$EndComp
$Comp
L R R11
U 1 1 599EF823
P 6850 4850
F 0 "R11" V 6930 4850 50  0000 C CNN
F 1 "220" V 6850 4850 50  0000 C CNN
F 2 "Resistors_SMD:R_1206_HandSoldering" V 6780 4850 50  0001 C CNN
F 3 "" H 6850 4850 50  0001 C CNN
	1    6850 4850
	0    1    1    0   
$EndComp
$Comp
L Screw_Terminal_1x01 J1
U 1 1 599F0308
P 8350 2450
F 0 "J1" H 8350 2600 50  0000 C TNN
F 1 "R" H 8250 2450 50  0000 C TNN
F 2 "Wire_Pads:SolderWirePad_single_1mmDrill" H 8350 2325 50  0001 C CNN
F 3 "" H 8350 2350 50  0001 C CNN
	1    8350 2450
	-1   0    0    1   
$EndComp
$Comp
L Screw_Terminal_1x01 J2
U 1 1 599F05B3
P 8350 3000
F 0 "J2" H 8350 3150 50  0000 C TNN
F 1 "G" H 8250 3000 50  0000 C TNN
F 2 "Wire_Pads:SolderWirePad_single_1mmDrill" H 8350 2875 50  0001 C CNN
F 3 "" H 8350 2900 50  0001 C CNN
	1    8350 3000
	-1   0    0    1   
$EndComp
$Comp
L Screw_Terminal_1x01 J3
U 1 1 599F06ED
P 8350 3550
F 0 "J3" H 8350 3700 50  0000 C TNN
F 1 "B" H 8250 3550 50  0000 C TNN
F 2 "Wire_Pads:SolderWirePad_single_1mmDrill" H 8350 3425 50  0001 C CNN
F 3 "" H 8350 3450 50  0001 C CNN
	1    8350 3550
	-1   0    0    1   
$EndComp
$Comp
L Screw_Terminal_1x01 J4
U 1 1 599F077F
P 8350 4100
F 0 "J4" H 8350 4250 50  0000 C TNN
F 1 "W" H 8250 4100 50  0000 C TNN
F 2 "Wire_Pads:SolderWirePad_single_1mmDrill" H 8350 3975 50  0001 C CNN
F 3 "" H 8350 4000 50  0001 C CNN
	1    8350 4100
	-1   0    0    1   
$EndComp
$Comp
L Screw_Terminal_1x01 J5
U 1 1 599F0833
P 8350 4650
F 0 "J5" H 8350 4800 50  0000 C TNN
F 1 "R" H 8250 4650 50  0000 C TNN
F 2 "Wire_Pads:SolderWirePad_single_1mmDrill" H 8350 4525 50  0001 C CNN
F 3 "" H 8350 4550 50  0001 C CNN
	1    8350 4650
	-1   0    0    1   
$EndComp
$Comp
L BSS138 Q2
U 1 1 599F14A9
P 6050 1800
F 0 "Q2" V 5950 1900 50  0000 L CNN
F 1 "BSS138" V 6300 1700 50  0000 L CNN
F 2 "TO_SOT_Packages_SMD:SOT-23" H 6250 1725 50  0001 L CIN
F 3 "" H 6050 1800 50  0001 L CNN
	1    6050 1800
	0    -1   1    0   
$EndComp
$Comp
L R R4
U 1 1 599F1926
P 5650 1750
F 0 "R4" V 5730 1750 50  0000 C CNN
F 1 "10k" V 5650 1750 50  0000 C CNN
F 2 "Resistors_SMD:R_1206_HandSoldering" V 5580 1750 50  0001 C CNN
F 3 "" H 5650 1750 50  0001 C CNN
	1    5650 1750
	1    0    0    -1  
$EndComp
$Comp
L R R5
U 1 1 599F19AF
P 6400 1750
F 0 "R5" V 6480 1750 50  0000 C CNN
F 1 "10k" V 6400 1750 50  0000 C CNN
F 2 "Resistors_SMD:R_1206_HandSoldering" V 6330 1750 50  0001 C CNN
F 3 "" H 6400 1750 50  0001 C CNN
	1    6400 1750
	1    0    0    -1  
$EndComp
$Comp
L BSS138 Q3
U 1 1 599F217F
P 7050 1800
F 0 "Q3" V 6950 1900 50  0000 L CNN
F 1 "BSS138" V 7300 1700 50  0000 L CNN
F 2 "TO_SOT_Packages_SMD:SOT-23" H 7250 1725 50  0001 L CIN
F 3 "" H 7050 1800 50  0001 L CNN
	1    7050 1800
	0    -1   1    0   
$EndComp
$Comp
L R R6
U 1 1 599F2185
P 6650 1750
F 0 "R6" V 6730 1750 50  0000 C CNN
F 1 "10k" V 6650 1750 50  0000 C CNN
F 2 "Resistors_SMD:R_1206_HandSoldering" V 6580 1750 50  0001 C CNN
F 3 "" H 6650 1750 50  0001 C CNN
	1    6650 1750
	1    0    0    -1  
$EndComp
$Comp
L R R17
U 1 1 599F218B
P 7400 1750
F 0 "R17" V 7480 1750 50  0000 C CNN
F 1 "10k" V 7400 1750 50  0000 C CNN
F 2 "Resistors_SMD:R_1206_HandSoldering" V 7330 1750 50  0001 C CNN
F 3 "" H 7400 1750 50  0001 C CNN
	1    7400 1750
	1    0    0    -1  
$EndComp
Text Label 7900 2100 2    60   ~ 0
RXD
Text Label 7800 1900 2    60   ~ 0
TXD
$Comp
L +1V8 #PWR09
U 1 1 599F2EEE
P 7100 1150
F 0 "#PWR09" H 7100 1000 50  0001 C CNN
F 1 "+1V8" H 7100 1290 50  0000 C CNN
F 2 "" H 7100 1150 50  0001 C CNN
F 3 "" H 7100 1150 50  0001 C CNN
	1    7100 1150
	1    0    0    -1  
$EndComp
$Comp
L BSS138 Q1
U 1 1 599F30CF
P 4800 1800
F 0 "Q1" V 4700 1900 50  0000 L CNN
F 1 "BSS138" V 5050 1700 50  0000 L CNN
F 2 "TO_SOT_Packages_SMD:SOT-23" H 5000 1725 50  0001 L CIN
F 3 "" H 4800 1800 50  0001 L CNN
	1    4800 1800
	0    -1   1    0   
$EndComp
$Comp
L R R2
U 1 1 599F3399
P 5150 1750
F 0 "R2" V 5230 1750 50  0000 C CNN
F 1 "10k" V 5150 1750 50  0000 C CNN
F 2 "Resistors_SMD:R_1206_HandSoldering" V 5080 1750 50  0001 C CNN
F 3 "" H 5150 1750 50  0001 C CNN
	1    5150 1750
	1    0    0    -1  
$EndComp
Text Label 8100 2150 2    60   ~ 0
RST
$Comp
L Screw_Terminal_1x01 J6
U 1 1 599F3E63
P 8350 5250
F 0 "J6" H 8350 5400 50  0000 C TNN
F 1 "GND" V 8200 5250 50  0000 C TNN
F 2 "Wire_Pads:SolderWirePad_single_1mmDrill" H 8350 5125 50  0001 C CNN
F 3 "" H 8350 5150 50  0001 C CNN
	1    8350 5250
	-1   0    0    1   
$EndComp
$Comp
L GND #PWR010
U 1 1 599F3EE8
P 8150 5450
F 0 "#PWR010" H 8150 5200 50  0001 C CNN
F 1 "GND" H 8150 5300 50  0000 C CNN
F 2 "" H 8150 5450 50  0001 C CNN
F 3 "" H 8150 5450 50  0001 C CNN
	1    8150 5450
	1    0    0    -1  
$EndComp
$Comp
L CONN_01X05 J7
U 1 1 599F4227
P 8850 1650
F 0 "J7" H 8850 1950 50  0000 C CNN
F 1 "UART" V 8950 1650 50  0000 C CNN
F 2 "Pin_Headers:Pin_Header_Straight_1x05_Pitch2.54mm" H 8850 1650 50  0001 C CNN
F 3 "" H 8850 1650 50  0001 C CNN
	1    8850 1650
	1    0    0    -1  
$EndComp
$Comp
L +5V #PWR011
U 1 1 599F42FC
P 8250 1200
F 0 "#PWR011" H 8250 1050 50  0001 C CNN
F 1 "+5V" H 8250 1340 50  0000 C CNN
F 2 "" H 8250 1200 50  0001 C CNN
F 3 "" H 8250 1200 50  0001 C CNN
	1    8250 1200
	1    0    0    -1  
$EndComp
$Comp
L DS18B20 U2
U 1 1 599F54D5
P 7300 2400
F 0 "U2" H 7150 2650 50  0000 C CNN
F 1 "DS18B20" H 7700 2550 50  0000 C CNN
F 2 "TO_SOT_Packages_THT:TO-92_Inline_Wide" H 7150 2650 50  0001 C CNN
F 3 "" H 7150 2650 50  0001 C CNN
	1    7300 2400
	1    0    0    -1  
$EndComp
$Comp
L R R3
U 1 1 599F61FC
P 5450 2350
F 0 "R3" V 5530 2350 50  0000 C CNN
F 1 "4k7" V 5450 2350 50  0000 C CNN
F 2 "Resistors_SMD:R_1206_HandSoldering" V 5380 2350 50  0001 C CNN
F 3 "" H 5450 2350 50  0001 C CNN
	1    5450 2350
	0    1    1    0   
$EndComp
$Comp
L C C4
U 1 1 599F6630
P 4400 1450
F 0 "C4" H 4425 1550 50  0000 L CNN
F 1 "100nF" H 4425 1350 50  0000 L CNN
F 2 "Capacitors_SMD:C_1206_HandSoldering" H 4438 1300 50  0001 C CNN
F 3 "" H 4400 1450 50  0001 C CNN
	1    4400 1450
	1    0    0    -1  
$EndComp
$Comp
L GND #PWR012
U 1 1 599F67C4
P 4400 1650
F 0 "#PWR012" H 4400 1400 50  0001 C CNN
F 1 "GND" H 4400 1500 50  0000 C CNN
F 2 "" H 4400 1650 50  0001 C CNN
F 3 "" H 4400 1650 50  0001 C CNN
	1    4400 1650
	1    0    0    -1  
$EndComp
$Comp
L +5V #PWR013
U 1 1 599F713B
P 2300 750
F 0 "#PWR013" H 2300 600 50  0001 C CNN
F 1 "+5V" H 2300 890 50  0000 C CNN
F 2 "" H 2300 750 50  0001 C CNN
F 3 "" H 2300 750 50  0001 C CNN
	1    2300 750 
	1    0    0    -1  
$EndComp
$Comp
L PWR_FLAG #FLG014
U 1 1 599F74A5
P 6400 1150
F 0 "#FLG014" H 6400 1225 50  0001 C CNN
F 1 "PWR_FLAG" H 6400 1300 50  0000 C CNN
F 2 "" H 6400 1150 50  0001 C CNN
F 3 "" H 6400 1150 50  0001 C CNN
	1    6400 1150
	1    0    0    -1  
$EndComp
Text Label 3100 2350 2    60   ~ 0
SCK
Text Label 3100 2450 2    60   ~ 0
MISO
Text Label 3250 1900 0    60   ~ 0
AVRRST
$Comp
L CONN_01X05 J8
U 1 1 599F9670
P 2500 2450
F 0 "J8" H 2500 2750 50  0000 C CNN
F 1 "ISP" V 2600 2450 50  0000 C CNN
F 2 "Pin_Headers:Pin_Header_Straight_1x05_Pitch2.54mm" H 2500 2450 50  0001 C CNN
F 3 "" H 2500 2450 50  0001 C CNN
	1    2500 2450
	-1   0    0    1   
$EndComp
$Comp
L GND #PWR015
U 1 1 599F97FD
P 3100 2750
F 0 "#PWR015" H 3100 2500 50  0001 C CNN
F 1 "GND" H 3100 2600 50  0000 C CNN
F 2 "" H 3100 2750 50  0001 C CNN
F 3 "" H 3100 2750 50  0001 C CNN
	1    3100 2750
	1    0    0    -1  
$EndComp
Text Label 6400 3050 2    60   ~ 0
SCK
Text Label 6500 2950 2    60   ~ 0
MISO
Text Label 3050 2650 2    60   ~ 0
MOSI
Text Label 6600 2850 2    60   ~ 0
MOSI
Text Label 3100 2250 2    60   ~ 0
AVRRST
NoConn ~ 5350 2550
Wire Wire Line
	2850 3600 3000 3600
Wire Wire Line
	3450 3250 2850 3250
Wire Wire Line
	2850 3250 2850 3600
Wire Wire Line
	3300 3600 3450 3600
Wire Wire Line
	3450 3600 3450 3450
Wire Wire Line
	3450 4050 3450 3900
Wire Wire Line
	3450 3900 2850 3900
Wire Wire Line
	3450 3000 3450 2950
Wire Wire Line
	3300 2250 5350 2250
Wire Wire Line
	4350 5300 4350 5150
Wire Wire Line
	4300 5150 4400 5150
Connection ~ 4350 5150
Wire Wire Line
	1450 1400 1450 750 
Wire Wire Line
	1900 750  1900 900 
Wire Wire Line
	1900 1200 1900 1400
Wire Wire Line
	4350 2100 4350 2250
Connection ~ 4350 2250
Wire Wire Line
	3450 2750 3300 2750
Wire Wire Line
	3300 2750 3300 2250
Connection ~ 4300 2250
Connection ~ 3400 2250
Wire Wire Line
	7000 2650 7350 2650
Wire Wire Line
	7000 2950 7400 2950
Wire Wire Line
	7400 2950 7400 2850
Wire Wire Line
	7400 2850 7650 2850
Wire Wire Line
	7300 2950 7300 5150
Wire Wire Line
	7150 5150 8150 5150
Connection ~ 7300 2950
Wire Wire Line
	7650 5150 7650 5050
Connection ~ 7300 5150
Wire Wire Line
	7000 4850 7350 4850
Wire Wire Line
	7000 4300 7350 4300
Wire Wire Line
	7650 4500 7300 4500
Connection ~ 7300 4500
Wire Wire Line
	7300 4600 7150 4600
Connection ~ 7300 4600
Wire Wire Line
	7650 3950 7300 3950
Connection ~ 7300 3950
Wire Wire Line
	7300 4050 7150 4050
Connection ~ 7300 4050
Wire Wire Line
	7000 3750 7350 3750
Wire Wire Line
	7650 3400 7300 3400
Connection ~ 7300 3400
Wire Wire Line
	7300 3500 7150 3500
Connection ~ 7300 3500
Wire Wire Line
	7000 3200 7350 3200
Connection ~ 7150 2650
Connection ~ 7150 3200
Connection ~ 7150 3750
Connection ~ 7150 4300
Connection ~ 7150 4850
Wire Wire Line
	6700 2650 5350 2650
Wire Wire Line
	5350 2750 6700 2750
Wire Wire Line
	6700 2750 6700 3200
Wire Wire Line
	5350 2850 6600 2850
Wire Wire Line
	6600 2850 6600 3750
Wire Wire Line
	6600 3750 6700 3750
Wire Wire Line
	5350 2950 6500 2950
Wire Wire Line
	6500 2950 6500 4300
Wire Wire Line
	6500 4300 6700 4300
Wire Wire Line
	5350 3050 6400 3050
Wire Wire Line
	6400 3050 6400 4850
Wire Wire Line
	6400 4850 6700 4850
Wire Wire Line
	8150 2450 7650 2450
Wire Wire Line
	7650 4100 8150 4100
Wire Wire Line
	8150 4650 7650 4650
Wire Wire Line
	7650 3550 8150 3550
Wire Wire Line
	7650 3000 8150 3000
Wire Wire Line
	6400 1600 6100 1600
Wire Wire Line
	6250 1900 6400 1900
Wire Wire Line
	5850 1900 5650 1900
Wire Wire Line
	7100 1600 7400 1600
Wire Wire Line
	7250 1900 7800 1900
Wire Wire Line
	6850 1900 6650 1900
Wire Wire Line
	5350 4150 5650 4150
Wire Wire Line
	5650 4150 5650 1900
Wire Wire Line
	5350 4250 6050 4250
Wire Wire Line
	6050 4250 6050 2200
Wire Wire Line
	6050 2200 6650 2200
Wire Wire Line
	6650 2200 6650 1900
Wire Wire Line
	5650 1600 5650 1450
Wire Wire Line
	5350 1450 6650 1450
Wire Wire Line
	6650 1450 6650 1600
Wire Wire Line
	5350 1450 5350 2300
Connection ~ 5650 1450
Connection ~ 4400 2250
Wire Wire Line
	6400 1150 6400 1600
Wire Wire Line
	4400 1300 8100 1300
Wire Wire Line
	7100 1150 7100 1600
Wire Wire Line
	8100 1300 8100 1550
Connection ~ 7100 1300
Wire Wire Line
	7800 1900 7800 1650
Wire Wire Line
	7800 1650 8450 1650
Connection ~ 7400 1900
Wire Wire Line
	6400 1900 6400 2100
Wire Wire Line
	4600 1900 3250 1900
Wire Wire Line
	3250 1900 3250 2550
Connection ~ 3400 2550
Wire Wire Line
	4850 1600 5150 1600
Wire Wire Line
	5150 1600 5150 1300
Connection ~ 6400 1300
Wire Wire Line
	5000 1900 5150 1900
Wire Wire Line
	6400 2100 7900 2100
Wire Wire Line
	7900 2100 7900 1750
Wire Wire Line
	7900 1750 8650 1750
Wire Wire Line
	8100 1850 8100 2150
Wire Wire Line
	8100 2150 5150 2150
Wire Wire Line
	5150 2150 5150 1900
Wire Wire Line
	8150 5150 8150 5450
Wire Wire Line
	8250 1200 8250 1500
Wire Wire Line
	8100 1550 8650 1550
Wire Wire Line
	8100 1850 8650 1850
Wire Wire Line
	7000 2500 7000 2950
Connection ~ 7150 2950
Connection ~ 8150 5250
Connection ~ 7650 5150
Wire Wire Line
	5350 2300 7000 2300
Connection ~ 5350 2250
Wire Wire Line
	5300 2350 5300 2250
Connection ~ 5300 2250
Connection ~ 5150 1300
Wire Wire Line
	4400 1650 4400 1600
Wire Wire Line
	2700 2250 3100 2250
Wire Wire Line
	2700 2350 3100 2350
Wire Wire Line
	2700 2450 3100 2450
Wire Wire Line
	2700 2650 3050 2650
Wire Wire Line
	3250 2550 3450 2550
Wire Wire Line
	3100 2550 2700 2550
Wire Wire Line
	3100 2550 3100 2750
Wire Wire Line
	2300 750  1900 750 
Wire Wire Line
	7000 2400 5600 2400
Wire Wire Line
	5600 2350 5600 3350
Wire Wire Line
	5600 3350 5350 3350
Connection ~ 5600 2400
Wire Wire Line
	8450 1650 8450 1450
Wire Wire Line
	8450 1450 8650 1450
Wire Wire Line
	8250 1500 8400 1500
Wire Wire Line
	8400 1500 8400 1700
Wire Wire Line
	8400 1700 8550 1700
Wire Wire Line
	8550 1700 8550 1650
Wire Wire Line
	8550 1650 8650 1650
$Comp
L R R18
U 1 1 59A00484
P 3850 1800
F 0 "R18" V 3750 1800 50  0000 C CNN
F 1 "0" V 3850 1800 50  0000 C CNN
F 2 "Resistors_SMD:R_1206_HandSoldering" V 3780 1800 50  0001 C CNN
F 3 "" H 3850 1800 50  0001 C CNN
	1    3850 1800
	0    1    1    0   
$EndComp
Wire Wire Line
	3700 1800 3700 1900
Connection ~ 3700 1900
Wire Wire Line
	4000 1800 4000 1900
Connection ~ 4000 1900
$EndSCHEMATC
