EESchema Schematic File Version 2
LIBS:power
LIBS:device
LIBS:transistors
LIBS:conn
LIBS:linear
LIBS:regul
LIBS:74xx
LIBS:cmos4000
LIBS:adc-dac
LIBS:memory
LIBS:xilinx
LIBS:microcontrollers
LIBS:dsp
LIBS:microchip
LIBS:analog_switches
LIBS:motorola
LIBS:texas
LIBS:intel
LIBS:audio
LIBS:interface
LIBS:digital-audio
LIBS:philips
LIBS:display
LIBS:cypress
LIBS:siliconi
LIBS:opto
LIBS:atmel
LIBS:contrib
LIBS:valves
EELAYER 25 0
EELAYER END
$Descr A4 11693 8268
encoding utf-8
Sheet 1 1
Title ""
Date ""
Rev ""
Comp ""
Comment1 ""
Comment2 ""
Comment3 ""
Comment4 ""
$EndDescr
$Comp
L BC817-40 Q1
U 1 1 59A9C8EF
P 2800 1850
F 0 "Q1" H 3000 1925 50  0000 L CNN
F 1 "BC817-40" H 3000 1850 50  0000 L CNN
F 2 "TO_SOT_Packages_SMD:SOT-23" H 3000 1775 50  0001 L CIN
F 3 "" H 2800 1850 50  0001 L CNN
	1    2800 1850
	1    0    0    -1  
$EndComp
$Comp
L BC817-40 Q2
U 1 1 59A9C979
P 3900 1850
F 0 "Q2" H 4100 1925 50  0000 L CNN
F 1 "BC817-40" H 4100 1850 50  0000 L CNN
F 2 "TO_SOT_Packages_SMD:SOT-23" H 4100 1775 50  0001 L CIN
F 3 "" H 3900 1850 50  0001 L CNN
	1    3900 1850
	1    0    0    -1  
$EndComp
$Comp
L R R3
U 1 1 59A9C9E4
P 3350 1650
F 0 "R3" V 3430 1650 50  0000 C CNN
F 1 "1k" V 3350 1650 50  0000 C CNN
F 2 "Resistors_SMD:R_0603_HandSoldering" V 3280 1650 50  0001 C CNN
F 3 "" H 3350 1650 50  0001 C CNN
	1    3350 1650
	0    1    1    0   
$EndComp
$Comp
L R R2
U 1 1 59A9CA15
P 2900 950
F 0 "R2" V 2980 950 50  0000 C CNN
F 1 "10k" V 2900 950 50  0000 C CNN
F 2 "Resistors_SMD:R_0603_HandSoldering" V 2830 950 50  0001 C CNN
F 3 "" H 2900 950 50  0001 C CNN
	1    2900 950 
	1    0    0    -1  
$EndComp
$Comp
L R R5
U 1 1 59A9CA62
P 4000 950
F 0 "R5" V 4080 950 50  0000 C CNN
F 1 "10k" V 4000 950 50  0000 C CNN
F 2 "Resistors_SMD:R_0603_HandSoldering" V 3930 950 50  0001 C CNN
F 3 "" H 4000 950 50  0001 C CNN
	1    4000 950 
	1    0    0    -1  
$EndComp
$Comp
L R R1
U 1 1 59A9CAD9
P 2300 1850
F 0 "R1" V 2380 1850 50  0000 C CNN
F 1 "1k" V 2300 1850 50  0000 C CNN
F 2 "Resistors_SMD:R_0603_HandSoldering" V 2230 1850 50  0001 C CNN
F 3 "" H 2300 1850 50  0001 C CNN
	1    2300 1850
	0    1    1    0   
$EndComp
$Comp
L BC817-40 Q5
U 1 1 59A9D320
P 5800 1850
F 0 "Q5" H 6000 1925 50  0000 L CNN
F 1 "BC817-40" H 6000 1850 50  0000 L CNN
F 2 "TO_SOT_Packages_SMD:SOT-23" H 6000 1775 50  0001 L CIN
F 3 "" H 5800 1850 50  0001 L CNN
	1    5800 1850
	-1   0    0    -1  
$EndComp
$Comp
L BC817-40 Q4
U 1 1 59A9D326
P 4700 1850
F 0 "Q4" H 4900 1925 50  0000 L CNN
F 1 "BC817-40" H 4900 1850 50  0000 L CNN
F 2 "TO_SOT_Packages_SMD:SOT-23" H 4900 1775 50  0001 L CIN
F 3 "" H 4700 1850 50  0001 L CNN
	1    4700 1850
	-1   0    0    -1  
$EndComp
$Comp
L R R7
U 1 1 59A9D32C
P 5250 1650
F 0 "R7" V 5330 1650 50  0000 C CNN
F 1 "1k" V 5250 1650 50  0000 C CNN
F 2 "Resistors_SMD:R_0603_HandSoldering" V 5180 1650 50  0001 C CNN
F 3 "" H 5250 1650 50  0001 C CNN
	1    5250 1650
	0    -1   1    0   
$EndComp
$Comp
L R R8
U 1 1 59A9D332
P 5700 950
F 0 "R8" V 5780 950 50  0000 C CNN
F 1 "10k" V 5700 950 50  0000 C CNN
F 2 "Resistors_SMD:R_0603_HandSoldering" V 5630 950 50  0001 C CNN
F 3 "" H 5700 950 50  0001 C CNN
	1    5700 950 
	-1   0    0    -1  
$EndComp
$Comp
L R R6
U 1 1 59A9D338
P 4600 950
F 0 "R6" V 4680 950 50  0000 C CNN
F 1 "10k" V 4600 950 50  0000 C CNN
F 2 "Resistors_SMD:R_0603_HandSoldering" V 4530 950 50  0001 C CNN
F 3 "" H 4600 950 50  0001 C CNN
	1    4600 950 
	-1   0    0    -1  
$EndComp
$Comp
L R R9
U 1 1 59A9D33E
P 6300 1850
F 0 "R9" V 6380 1850 50  0000 C CNN
F 1 "1k" V 6300 1850 50  0000 C CNN
F 2 "Resistors_SMD:R_0603_HandSoldering" V 6230 1850 50  0001 C CNN
F 3 "" H 6300 1850 50  0001 C CNN
	1    6300 1850
	0    -1   1    0   
$EndComp
$Comp
L +1V8 #PWR01
U 1 1 59A9D9FA
P 5700 650
F 0 "#PWR01" H 5700 500 50  0001 C CNN
F 1 "+1V8" H 5700 790 50  0000 C CNN
F 2 "" H 5700 650 50  0001 C CNN
F 3 "" H 5700 650 50  0001 C CNN
	1    5700 650 
	1    0    0    -1  
$EndComp
$Comp
L CONN_01X05 J1
U 1 1 59A9DC5A
P 1700 1400
F 0 "J1" H 1700 1700 50  0000 C CNN
F 1 "CONN_01X05" V 1800 1400 50  0000 C CNN
F 2 "Pin_Headers:Pin_Header_Straight_1x05_Pitch2.54mm" H 1700 1400 50  0001 C CNN
F 3 "" H 1700 1400 50  0001 C CNN
	1    1700 1400
	-1   0    0    -1  
$EndComp
Text Label 1900 1300 0    60   ~ 0
ltxd
Text Label 1900 1400 0    60   ~ 0
lrxd
$Comp
L CONN_01X05 J2
U 1 1 59A9E14D
P 6900 1400
F 0 "J2" H 6900 1700 50  0000 C CNN
F 1 "CONN_01X05" V 7000 1400 50  0000 C CNN
F 2 "Pin_Headers:Pin_Header_Straight_1x05_Pitch2.54mm" H 6900 1400 50  0001 C CNN
F 3 "" H 6900 1400 50  0001 C CNN
	1    6900 1400
	1    0    0    -1  
$EndComp
$Comp
L +5V #PWR02
U 1 1 59A9E1F4
P 2900 650
F 0 "#PWR02" H 2900 500 50  0001 C CNN
F 1 "+5V" H 2900 790 50  0000 C CNN
F 2 "" H 2900 650 50  0001 C CNN
F 3 "" H 2900 650 50  0001 C CNN
	1    2900 650 
	1    0    0    -1  
$EndComp
Text Label 6700 1300 2    60   ~ 0
hrxd
Text Label 6700 1400 2    60   ~ 0
htxd
$Comp
L BC817-40 Q3
U 1 1 59A9EF8F
P 3900 2450
F 0 "Q3" H 4100 2525 50  0000 L CNN
F 1 "BC817-40" H 4100 2450 50  0000 L CNN
F 2 "TO_SOT_Packages_SMD:SOT-23" H 4100 2375 50  0001 L CIN
F 3 "" H 3900 2450 50  0001 L CNN
	1    3900 2450
	1    0    0    1   
$EndComp
$Comp
L R R4
U 1 1 59A9F042
P 3400 2450
F 0 "R4" V 3480 2450 50  0000 C CNN
F 1 "1k" V 3400 2450 50  0000 C CNN
F 2 "Resistors_SMD:R_0603_HandSoldering" V 3330 2450 50  0001 C CNN
F 3 "" H 3400 2450 50  0001 C CNN
	1    3400 2450
	0    1    1    0   
$EndComp
$Comp
L C C1
U 1 1 59A9F411
P 7700 1200
F 0 "C1" H 7725 1300 50  0000 L CNN
F 1 "100nf" H 7725 1100 50  0000 L CNN
F 2 "Capacitors_SMD:C_1206_HandSoldering" H 7738 1050 50  0001 C CNN
F 3 "" H 7700 1200 50  0001 C CNN
	1    7700 1200
	1    0    0    -1  
$EndComp
$Comp
L C C2
U 1 1 59A9F4CE
P 7950 1200
F 0 "C2" H 7975 1300 50  0000 L CNN
F 1 "100nF" H 7975 1100 50  0000 L CNN
F 2 "Capacitors_SMD:C_1206_HandSoldering" H 7988 1050 50  0001 C CNN
F 3 "" H 7950 1200 50  0001 C CNN
	1    7950 1200
	1    0    0    -1  
$EndComp
$Comp
L +1V8 #PWR03
U 1 1 59A9F613
P 7950 900
F 0 "#PWR03" H 7950 750 50  0001 C CNN
F 1 "+1V8" H 7950 1040 50  0000 C CNN
F 2 "" H 7950 900 50  0001 C CNN
F 3 "" H 7950 900 50  0001 C CNN
	1    7950 900 
	1    0    0    -1  
$EndComp
$Comp
L GND #PWR04
U 1 1 59A9F64B
P 7700 1500
F 0 "#PWR04" H 7700 1250 50  0001 C CNN
F 1 "GND" H 7700 1350 50  0000 C CNN
F 2 "" H 7700 1500 50  0001 C CNN
F 3 "" H 7700 1500 50  0001 C CNN
	1    7700 1500
	1    0    0    -1  
$EndComp
$Comp
L PWR_FLAG #FLG05
U 1 1 59A9F916
P 8250 900
F 0 "#FLG05" H 8250 975 50  0001 C CNN
F 1 "PWR_FLAG" H 8250 1050 50  0000 C CNN
F 2 "" H 8250 900 50  0001 C CNN
F 3 "" H 8250 900 50  0001 C CNN
	1    8250 900 
	1    0    0    -1  
$EndComp
$Comp
L PWR_FLAG #FLG06
U 1 1 59A9FA14
P 7450 900
F 0 "#FLG06" H 7450 975 50  0001 C CNN
F 1 "PWR_FLAG" H 7450 1050 50  0000 C CNN
F 2 "" H 7450 900 50  0001 C CNN
F 3 "" H 7450 900 50  0001 C CNN
	1    7450 900 
	1    0    0    -1  
$EndComp
$Comp
L PWR_FLAG #FLG07
U 1 1 59A9FA97
P 7450 1200
F 0 "#FLG07" H 7450 1275 50  0001 C CNN
F 1 "PWR_FLAG" H 7450 1350 50  0000 C CNN
F 2 "" H 7450 1200 50  0001 C CNN
F 3 "" H 7450 1200 50  0001 C CNN
	1    7450 1200
	1    0    0    -1  
$EndComp
$Comp
L +5V #PWR08
U 1 1 59A9FEA4
P 7700 900
F 0 "#PWR08" H 7700 750 50  0001 C CNN
F 1 "+5V" H 7700 1040 50  0000 C CNN
F 2 "" H 7700 900 50  0001 C CNN
F 3 "" H 7700 900 50  0001 C CNN
	1    7700 900 
	1    0    0    -1  
$EndComp
$Comp
L GND #PWR?
U 1 1 59AA0192
P 2900 2150
F 0 "#PWR?" H 2900 1900 50  0001 C CNN
F 1 "GND" H 2900 2000 50  0000 C CNN
F 2 "" H 2900 2150 50  0001 C CNN
F 3 "" H 2900 2150 50  0001 C CNN
	1    2900 2150
	1    0    0    -1  
$EndComp
Wire Wire Line
	2450 1850 2600 1850
Wire Wire Line
	2900 1100 2900 1650
Wire Wire Line
	2900 1650 3200 1650
Wire Wire Line
	2050 2050 6600 2050
Wire Wire Line
	3500 1650 3700 1650
Wire Wire Line
	3700 1650 3700 1850
Wire Wire Line
	4000 1100 4000 1650
Wire Wire Line
	6150 1850 6000 1850
Wire Wire Line
	5700 1650 5400 1650
Wire Wire Line
	5100 1650 4900 1650
Wire Wire Line
	4900 1650 4900 1850
Wire Wire Line
	4600 1100 4600 1650
Wire Wire Line
	2900 650  2900 800 
Connection ~ 2900 2050
Connection ~ 4600 2050
Connection ~ 4000 2050
Wire Wire Line
	1900 1500 2050 1500
Wire Wire Line
	2050 1500 2050 2050
Wire Wire Line
	1900 1300 2150 1300
Wire Wire Line
	2150 1300 2150 1850
Wire Wire Line
	5700 650  5700 800 
Wire Wire Line
	1900 700  1900 1200
Wire Wire Line
	5700 1100 5700 1650
Wire Wire Line
	6700 1300 4000 1300
Connection ~ 4000 1300
Wire Wire Line
	4000 800  4000 750 
Wire Wire Line
	2900 750  6700 750 
Wire Wire Line
	4600 800  4600 700 
Wire Wire Line
	1900 700  5700 700 
Connection ~ 2900 750 
Connection ~ 4000 750 
Connection ~ 5700 700 
Connection ~ 4600 700 
Wire Wire Line
	6700 1400 6450 1400
Wire Wire Line
	6450 1400 6450 1850
Wire Wire Line
	6700 750  6700 1200
Wire Wire Line
	6600 2050 6600 1500
Wire Wire Line
	6600 1500 6700 1500
Connection ~ 5700 2050
Wire Wire Line
	4000 2250 4000 2050
Wire Wire Line
	3250 2450 1900 2450
Wire Wire Line
	1900 2450 1900 1600
Wire Wire Line
	3550 2450 3700 2450
Wire Wire Line
	4000 2650 6700 2650
Wire Wire Line
	6700 2650 6700 1600
Wire Wire Line
	1900 1400 4600 1400
Connection ~ 4600 1400
Wire Wire Line
	7700 1500 7700 1350
Wire Wire Line
	7450 1350 7950 1350
Wire Wire Line
	7700 900  7700 1050
Wire Wire Line
	7950 900  7950 1050
Wire Wire Line
	8250 900  8250 1000
Wire Wire Line
	8250 1000 7950 1000
Connection ~ 7950 1000
Wire Wire Line
	7450 900  7450 1000
Wire Wire Line
	7450 1000 7700 1000
Connection ~ 7700 1000
Wire Wire Line
	7450 1200 7450 1350
Connection ~ 7700 1350
Wire Wire Line
	2900 2050 2900 2150
$EndSCHEMATC
